
METRICS:::	TS:0	NUM_POINTS:144	ALL_CLUSTERS:223	CLUSTERS_FILTERED:10	CLUSTERS_MERGED:10	
METRICS:::	TS:1	NUM_POINTS:144	ALL_CLUSTERS:177	CLUSTERS_FILTERED:16	CLUSTERS_MERGED:19	
METRICS:::	TS:2	NUM_POINTS:144	ALL_CLUSTERS:127	CLUSTERS_FILTERED:22	CLUSTERS_MERGED:29	
METRICS:::	TS:3	NUM_POINTS:144	ALL_CLUSTERS:101	CLUSTERS_FILTERED:17	CLUSTERS_MERGED:30	
METRICS:::	TS:4	NUM_POINTS:144	ALL_CLUSTERS:92	CLUSTERS_FILTERED:25	CLUSTERS_MERGED:42	
METRICS:::	TS:5	NUM_POINTS:144	ALL_CLUSTERS:83	CLUSTERS_FILTERED:23	CLUSTERS_MERGED:41	
METRICS:::	TS:6	NUM_POINTS:144	ALL_CLUSTERS:118	CLUSTERS_FILTERED:31	CLUSTERS_MERGED:60	
METRICS:::	TS:7	NUM_POINTS:144	ALL_CLUSTERS:108	CLUSTERS_FILTERED:29	CLUSTERS_MERGED:57	
METRICS:::	TS:8	NUM_POINTS:144	ALL_CLUSTERS:95	CLUSTERS_FILTERED:26	CLUSTERS_MERGED:43	
METRICS:::	TS:9	NUM_POINTS:144	ALL_CLUSTERS:80	CLUSTERS_FILTERED:19	CLUSTERS_MERGED:35	
METRICS:::	TS:10	NUM_POINTS:144	ALL_CLUSTERS:65	CLUSTERS_FILTERED:17	CLUSTERS_MERGED:32	
METRICS:::	TS:11	NUM_POINTS:144	ALL_CLUSTERS:47	CLUSTERS_FILTERED:20	CLUSTERS_MERGED:27	
METRICS:::	TS:12	NUM_POINTS:144	ALL_CLUSTERS:68	CLUSTERS_FILTERED:20	CLUSTERS_MERGED:35	
METRICS:::	TS:13	NUM_POINTS:144	ALL_CLUSTERS:63	CLUSTERS_FILTERED:18	CLUSTERS_MERGED:32	
METRICS:::	TS:14	NUM_POINTS:143	ALL_CLUSTERS:47	CLUSTERS_FILTERED:15	CLUSTERS_MERGED:24	
METRICS:::	TS:15	NUM_POINTS:143	ALL_CLUSTERS:51	CLUSTERS_FILTERED:13	CLUSTERS_MERGED:27	
METRICS:::	TS:16	NUM_POINTS:143	ALL_CLUSTERS:55	CLUSTERS_FILTERED:16	CLUSTERS_MERGED:25	
METRICS:::	TS:17	NUM_POINTS:143	ALL_CLUSTERS:49	CLUSTERS_FILTERED:16	CLUSTERS_MERGED:22	
METRICS:::	TS:18	NUM_POINTS:143	ALL_CLUSTERS:63	CLUSTERS_FILTERED:19	CLUSTERS_MERGED:26	
METRICS:::	TS:19	NUM_POINTS:143	ALL_CLUSTERS:49	CLUSTERS_FILTERED:19	CLUSTERS_MERGED:22	
METRICS:::	TS:20	NUM_POINTS:143	ALL_CLUSTERS:69	CLUSTERS_FILTERED:22	CLUSTERS_MERGED:27	
METRICS:::	TS:21	NUM_POINTS:143	ALL_CLUSTERS:71	CLUSTERS_FILTERED:22	CLUSTERS_MERGED:29	
METRICS:::	TS:22	NUM_POINTS:143	ALL_CLUSTERS:67	CLUSTERS_FILTERED:23	CLUSTERS_MERGED:29	
METRICS:::	TS:23	NUM_POINTS:143	ALL_CLUSTERS:52	CLUSTERS_FILTERED:15	CLUSTERS_MERGED:26	
METRICS:::	TS:24	NUM_POINTS:143	ALL_CLUSTERS:55	CLUSTERS_FILTERED:14	CLUSTERS_MERGED:24	
METRICS:::	TS:25	NUM_POINTS:143	ALL_CLUSTERS:45	CLUSTERS_FILTERED:14	CLUSTERS_MERGED:25	
METRICS:::	TS:26	NUM_POINTS:143	ALL_CLUSTERS:32	CLUSTERS_FILTERED:8	CLUSTERS_MERGED:18	
METRICS:::	TS:27	NUM_POINTS:143	ALL_CLUSTERS:19	CLUSTERS_FILTERED:9	CLUSTERS_MERGED:14	
METRICS:::	TS:28	NUM_POINTS:143	ALL_CLUSTERS:28	CLUSTERS_FILTERED:11	CLUSTERS_MERGED:17	
METRICS:::	TS:29	NUM_POINTS:143	ALL_CLUSTERS:39	CLUSTERS_FILTERED:15	CLUSTERS_MERGED:23	
METRICS:::	TS:30	NUM_POINTS:143	ALL_CLUSTERS:42	CLUSTERS_FILTERED:16	CLUSTERS_MERGED:23	
METRICS:::	TS:31	NUM_POINTS:142	ALL_CLUSTERS:43	CLUSTERS_FILTERED:12	CLUSTERS_MERGED:28	
METRICS:::	TS:32	NUM_POINTS:142	ALL_CLUSTERS:46	CLUSTERS_FILTERED:11	CLUSTERS_MERGED:28	
METRICS:::	TS:33	NUM_POINTS:141	ALL_CLUSTERS:46	CLUSTERS_FILTERED:15	CLUSTERS_MERGED:25	
METRICS:::	TS:34	NUM_POINTS:141	ALL_CLUSTERS:29	CLUSTERS_FILTERED:9	CLUSTERS_MERGED:16	
METRICS:::	TS:35	NUM_POINTS:141	ALL_CLUSTERS:20	CLUSTERS_FILTERED:7	CLUSTERS_MERGED:9	
METRICS:::	TS:36	NUM_POINTS:141	ALL_CLUSTERS:20	CLUSTERS_FILTERED:9	CLUSTERS_MERGED:9	
METRICS:::	TS:37	NUM_POINTS:141	ALL_CLUSTERS:35	CLUSTERS_FILTERED:13	CLUSTERS_MERGED:16	
METRICS:::	TS:38	NUM_POINTS:141	ALL_CLUSTERS:28	CLUSTERS_FILTERED:8	CLUSTERS_MERGED:13	
METRICS:::	TS:39	NUM_POINTS:140	ALL_CLUSTERS:10	CLUSTERS_FILTERED:4	CLUSTERS_MERGED:8	
METRICS:::	TS:40	NUM_POINTS:140	ALL_CLUSTERS:16	CLUSTERS_FILTERED:8	CLUSTERS_MERGED:13	
METRICS:::	TS:41	NUM_POINTS:140	ALL_CLUSTERS:16	CLUSTERS_FILTERED:7	CLUSTERS_MERGED:10	
METRICS:::	TS:42	NUM_POINTS:138	ALL_CLUSTERS:17	CLUSTERS_FILTERED:6	CLUSTERS_MERGED:9	
METRICS:::	TS:43	NUM_POINTS:138	ALL_CLUSTERS:14	CLUSTERS_FILTERED:4	CLUSTERS_MERGED:8	
METRICS:::	TS:44	NUM_POINTS:137	ALL_CLUSTERS:19	CLUSTERS_FILTERED:5	CLUSTERS_MERGED:10	
METRICS:::	TS:45	NUM_POINTS:137	ALL_CLUSTERS:25	CLUSTERS_FILTERED:6	CLUSTERS_MERGED:15	
METRICS:::	TS:46	NUM_POINTS:137	ALL_CLUSTERS:22	CLUSTERS_FILTERED:5	CLUSTERS_MERGED:12	
METRICS:::	TS:47	NUM_POINTS:137	ALL_CLUSTERS:22	CLUSTERS_FILTERED:6	CLUSTERS_MERGED:12	
METRICS:::	TS:48	NUM_POINTS:136	ALL_CLUSTERS:37	CLUSTERS_FILTERED:9	CLUSTERS_MERGED:17	
METRICS:::	TS:49	NUM_POINTS:136	ALL_CLUSTERS:42	CLUSTERS_FILTERED:8	CLUSTERS_MERGED:16	
METRICS:::	TS:50	NUM_POINTS:135	ALL_CLUSTERS:33	CLUSTERS_FILTERED:9	CLUSTERS_MERGED:15	
METRICS:::	TS:51	NUM_POINTS:134	ALL_CLUSTERS:46	CLUSTERS_FILTERED:9	CLUSTERS_MERGED:19	
METRICS:::	TS:52	NUM_POINTS:134	ALL_CLUSTERS:42	CLUSTERS_FILTERED:6	CLUSTERS_MERGED:18	
METRICS:::	TS:53	NUM_POINTS:133	ALL_CLUSTERS:46	CLUSTERS_FILTERED:11	CLUSTERS_MERGED:20	
METRICS:::	TS:54	NUM_POINTS:133	ALL_CLUSTERS:37	CLUSTERS_FILTERED:9	CLUSTERS_MERGED:15	
METRICS:::	TS:55	NUM_POINTS:133	ALL_CLUSTERS:33	CLUSTERS_FILTERED:7	CLUSTERS_MERGED:15	
METRICS:::	TS:56	NUM_POINTS:133	ALL_CLUSTERS:29	CLUSTERS_FILTERED:10	CLUSTERS_MERGED:14	
METRICS:::	TS:57	NUM_POINTS:133	ALL_CLUSTERS:33	CLUSTERS_FILTERED:13	CLUSTERS_MERGED:19	
METRICS:::	TS:58	NUM_POINTS:133	ALL_CLUSTERS:56	CLUSTERS_FILTERED:17	CLUSTERS_MERGED:27	
METRICS:::	TS:59	NUM_POINTS:133	ALL_CLUSTERS:69	CLUSTERS_FILTERED:24	CLUSTERS_MERGED:37	
METRICS:::	TS:60	NUM_POINTS:133	ALL_CLUSTERS:72	CLUSTERS_FILTERED:21	CLUSTERS_MERGED:42	
METRICS:::	TS:61	NUM_POINTS:132	ALL_CLUSTERS:71	CLUSTERS_FILTERED:21	CLUSTERS_MERGED:43	
METRICS:::	TS:62	NUM_POINTS:132	ALL_CLUSTERS:78	CLUSTERS_FILTERED:23	CLUSTERS_MERGED:45	
METRICS:::	TS:63	NUM_POINTS:132	ALL_CLUSTERS:98	CLUSTERS_FILTERED:25	CLUSTERS_MERGED:53	
METRICS:::	TS:64	NUM_POINTS:132	ALL_CLUSTERS:91	CLUSTERS_FILTERED:22	CLUSTERS_MERGED:56	
METRICS:::	TS:65	NUM_POINTS:132	ALL_CLUSTERS:78	CLUSTERS_FILTERED:22	CLUSTERS_MERGED:54	
METRICS:::	TS:66	NUM_POINTS:132	ALL_CLUSTERS:74	CLUSTERS_FILTERED:16	CLUSTERS_MERGED:55	
METRICS:::	TS:67	NUM_POINTS:131	ALL_CLUSTERS:75	CLUSTERS_FILTERED:17	CLUSTERS_MERGED:54	
METRICS:::	TS:68	NUM_POINTS:130	ALL_CLUSTERS:58	CLUSTERS_FILTERED:10	CLUSTERS_MERGED:41	
METRICS:::	TS:69	NUM_POINTS:129	ALL_CLUSTERS:61	CLUSTERS_FILTERED:9	CLUSTERS_MERGED:42	
METRICS:::	TS:70	NUM_POINTS:129	ALL_CLUSTERS:56	CLUSTERS_FILTERED:13	CLUSTERS_MERGED:50	
METRICS:::	TS:71	NUM_POINTS:129	ALL_CLUSTERS:57	CLUSTERS_FILTERED:10	CLUSTERS_MERGED:27	
METRICS:::	TS:72	NUM_POINTS:129	ALL_CLUSTERS:49	CLUSTERS_FILTERED:12	CLUSTERS_MERGED:29	
METRICS:::	TS:73	NUM_POINTS:129	ALL_CLUSTERS:62	CLUSTERS_FILTERED:15	CLUSTERS_MERGED:39	
METRICS:::	TS:74	NUM_POINTS:128	ALL_CLUSTERS:58	CLUSTERS_FILTERED:13	CLUSTERS_MERGED:33	
METRICS:::	TS:75	NUM_POINTS:127	ALL_CLUSTERS:54	CLUSTERS_FILTERED:14	CLUSTERS_MERGED:27	
METRICS:::	TS:76	NUM_POINTS:127	ALL_CLUSTERS:35	CLUSTERS_FILTERED:11	CLUSTERS_MERGED:22	
METRICS:::	TS:77	NUM_POINTS:127	ALL_CLUSTERS:38	CLUSTERS_FILTERED:9	CLUSTERS_MERGED:20	
METRICS:::	TS:78	NUM_POINTS:126	ALL_CLUSTERS:47	CLUSTERS_FILTERED:13	CLUSTERS_MERGED:26	
METRICS:::	TS:79	NUM_POINTS:122	ALL_CLUSTERS:49	CLUSTERS_FILTERED:13	CLUSTERS_MERGED:27	
METRICS:::	TS:80	NUM_POINTS:122	ALL_CLUSTERS:38	CLUSTERS_FILTERED:14	CLUSTERS_MERGED:21	
METRICS:::	TS:81	NUM_POINTS:122	ALL_CLUSTERS:23	CLUSTERS_FILTERED:7	CLUSTERS_MERGED:14	
METRICS:::	TS:82	NUM_POINTS:121	ALL_CLUSTERS:22	CLUSTERS_FILTERED:7	CLUSTERS_MERGED:11	
METRICS:::	TS:83	NUM_POINTS:121	ALL_CLUSTERS:22	CLUSTERS_FILTERED:9	CLUSTERS_MERGED:12	
METRICS:::	TS:84	NUM_POINTS:121	ALL_CLUSTERS:20	CLUSTERS_FILTERED:7	CLUSTERS_MERGED:10	
METRICS:::	TS:85	NUM_POINTS:120	ALL_CLUSTERS:16	CLUSTERS_FILTERED:6	CLUSTERS_MERGED:10	
METRICS:::	TS:86	NUM_POINTS:120	ALL_CLUSTERS:20	CLUSTERS_FILTERED:5	CLUSTERS_MERGED:10	
METRICS:::	TS:87	NUM_POINTS:120	ALL_CLUSTERS:16	CLUSTERS_FILTERED:6	CLUSTERS_MERGED:11	
METRICS:::	TS:88	NUM_POINTS:120	ALL_CLUSTERS:21	CLUSTERS_FILTERED:5	CLUSTERS_MERGED:12	
METRICS:::	TS:89	NUM_POINTS:120	ALL_CLUSTERS:32	CLUSTERS_FILTERED:10	CLUSTERS_MERGED:14	
METRICS:::	TS:90	NUM_POINTS:120	ALL_CLUSTERS:21	CLUSTERS_FILTERED:5	CLUSTERS_MERGED:11	
METRICS:::	TS:91	NUM_POINTS:118	ALL_CLUSTERS:16	CLUSTERS_FILTERED:5	CLUSTERS_MERGED:10	
METRICS:::	TS:92	NUM_POINTS:118	ALL_CLUSTERS:20	CLUSTERS_FILTERED:6	CLUSTERS_MERGED:12	
METRICS:::	TS:93	NUM_POINTS:118	ALL_CLUSTERS:23	CLUSTERS_FILTERED:6	CLUSTERS_MERGED:14	
METRICS:::	TS:94	NUM_POINTS:117	ALL_CLUSTERS:33	CLUSTERS_FILTERED:7	CLUSTERS_MERGED:14	
METRICS:::	TS:95	NUM_POINTS:117	ALL_CLUSTERS:32	CLUSTERS_FILTERED:7	CLUSTERS_MERGED:15	
METRICS:::	TS:96	NUM_POINTS:117	ALL_CLUSTERS:31	CLUSTERS_FILTERED:7	CLUSTERS_MERGED:15	
METRICS:::	TS:97	NUM_POINTS:117	ALL_CLUSTERS:21	CLUSTERS_FILTERED:5	CLUSTERS_MERGED:16	
METRICS:::	TS:98	NUM_POINTS:116	ALL_CLUSTERS:21	CLUSTERS_FILTERED:5	CLUSTERS_MERGED:14	
METRICS:::	TS:99	NUM_POINTS:115	ALL_CLUSTERS:26	CLUSTERS_FILTERED:11	CLUSTERS_MERGED:22	
METRICS:::	TS:100	NUM_POINTS:114	ALL_CLUSTERS:18	CLUSTERS_FILTERED:5	CLUSTERS_MERGED:15	
METRICS:::	TS:101	NUM_POINTS:114	ALL_CLUSTERS:24	CLUSTERS_FILTERED:6	CLUSTERS_MERGED:14	
METRICS:::	TS:102	NUM_POINTS:114	ALL_CLUSTERS:22	CLUSTERS_FILTERED:7	CLUSTERS_MERGED:15	
METRICS:::	TS:103	NUM_POINTS:114	ALL_CLUSTERS:27	CLUSTERS_FILTERED:5	CLUSTERS_MERGED:15	
METRICS:::	TS:104	NUM_POINTS:114	ALL_CLUSTERS:25	CLUSTERS_FILTERED:5	CLUSTERS_MERGED:14	
METRICS:::	TS:105	NUM_POINTS:114	ALL_CLUSTERS:26	CLUSTERS_FILTERED:6	CLUSTERS_MERGED:16	
METRICS:::	TS:106	NUM_POINTS:114	ALL_CLUSTERS:32	CLUSTERS_FILTERED:7	CLUSTERS_MERGED:20	
METRICS:::	TS:107	NUM_POINTS:114	ALL_CLUSTERS:39	CLUSTERS_FILTERED:11	CLUSTERS_MERGED:21	
METRICS:::	TS:108	NUM_POINTS:114	ALL_CLUSTERS:32	CLUSTERS_FILTERED:13	CLUSTERS_MERGED:25	
METRICS:::	TS:109	NUM_POINTS:112	ALL_CLUSTERS:43	CLUSTERS_FILTERED:11	CLUSTERS_MERGED:27	
METRICS:::	TS:110	NUM_POINTS:112	ALL_CLUSTERS:41	CLUSTERS_FILTERED:9	CLUSTERS_MERGED:28	
METRICS:::	TS:111	NUM_POINTS:112	ALL_CLUSTERS:47	CLUSTERS_FILTERED:7	CLUSTERS_MERGED:34	
METRICS:::	TS:112	NUM_POINTS:112	ALL_CLUSTERS:68	CLUSTERS_FILTERED:11	CLUSTERS_MERGED:50	
METRICS:::	TS:113	NUM_POINTS:111	ALL_CLUSTERS:61	CLUSTERS_FILTERED:12	CLUSTERS_MERGED:50	
METRICS:::	TS:114	NUM_POINTS:111	ALL_CLUSTERS:54	CLUSTERS_FILTERED:12	CLUSTERS_MERGED:46	
METRICS:::	TS:115	NUM_POINTS:110	ALL_CLUSTERS:46	CLUSTERS_FILTERED:11	CLUSTERS_MERGED:32	
METRICS:::	TS:116	NUM_POINTS:110	ALL_CLUSTERS:45	CLUSTERS_FILTERED:12	CLUSTERS_MERGED:30	
METRICS:::	TS:117	NUM_POINTS:110	ALL_CLUSTERS:40	CLUSTERS_FILTERED:8	CLUSTERS_MERGED:28	
METRICS:::	TS:118	NUM_POINTS:109	ALL_CLUSTERS:37	CLUSTERS_FILTERED:10	CLUSTERS_MERGED:23	
METRICS:::	TS:119	NUM_POINTS:108	ALL_CLUSTERS:37	CLUSTERS_FILTERED:8	CLUSTERS_MERGED:19	
METRICS:::	TS:120	NUM_POINTS:108	ALL_CLUSTERS:36	CLUSTERS_FILTERED:8	CLUSTERS_MERGED:17	
METRICS:::	TS:121	NUM_POINTS:108	ALL_CLUSTERS:47	CLUSTERS_FILTERED:10	CLUSTERS_MERGED:21	
METRICS:::	TS:122	NUM_POINTS:108	ALL_CLUSTERS:60	CLUSTERS_FILTERED:12	CLUSTERS_MERGED:26	
METRICS:::	TS:123	NUM_POINTS:107	ALL_CLUSTERS:51	CLUSTERS_FILTERED:11	CLUSTERS_MERGED:28	
METRICS:::	TS:124	NUM_POINTS:107	ALL_CLUSTERS:42	CLUSTERS_FILTERED:7	CLUSTERS_MERGED:21	
METRICS:::	TS:125	NUM_POINTS:107	ALL_CLUSTERS:39	CLUSTERS_FILTERED:6	CLUSTERS_MERGED:21	
METRICS:::	TS:126	NUM_POINTS:107	ALL_CLUSTERS:35	CLUSTERS_FILTERED:5	CLUSTERS_MERGED:20	
METRICS:::	TS:127	NUM_POINTS:107	ALL_CLUSTERS:36	CLUSTERS_FILTERED:8	CLUSTERS_MERGED:20	
METRICS:::	TS:128	NUM_POINTS:107	ALL_CLUSTERS:38	CLUSTERS_FILTERED:8	CLUSTERS_MERGED:21	
METRICS:::	TS:129	NUM_POINTS:106	ALL_CLUSTERS:27	CLUSTERS_FILTERED:6	CLUSTERS_MERGED:15	
METRICS:::	TS:130	NUM_POINTS:106	ALL_CLUSTERS:22	CLUSTERS_FILTERED:6	CLUSTERS_MERGED:13	
METRICS:::	TS:131	NUM_POINTS:106	ALL_CLUSTERS:23	CLUSTERS_FILTERED:8	CLUSTERS_MERGED:12	
METRICS:::	TS:132	NUM_POINTS:106	ALL_CLUSTERS:13	CLUSTERS_FILTERED:4	CLUSTERS_MERGED:7	
METRICS:::	TS:133	NUM_POINTS:106	ALL_CLUSTERS:13	CLUSTERS_FILTERED:4	CLUSTERS_MERGED:7	
METRICS:::	TS:134	NUM_POINTS:106	ALL_CLUSTERS:25	CLUSTERS_FILTERED:7	CLUSTERS_MERGED:12	
METRICS:::	TS:135	NUM_POINTS:106	ALL_CLUSTERS:22	CLUSTERS_FILTERED:7	CLUSTERS_MERGED:13	
METRICS:::	TS:136	NUM_POINTS:106	ALL_CLUSTERS:18	CLUSTERS_FILTERED:7	CLUSTERS_MERGED:10	
METRICS:::	TS:137	NUM_POINTS:106	ALL_CLUSTERS:11	CLUSTERS_FILTERED:4	CLUSTERS_MERGED:7	
METRICS:::	TS:138	NUM_POINTS:106	ALL_CLUSTERS:15	CLUSTERS_FILTERED:6	CLUSTERS_MERGED:8	
METRICS:::	TS:139	NUM_POINTS:106	ALL_CLUSTERS:11	CLUSTERS_FILTERED:6	CLUSTERS_MERGED:6	
METRICS:::	TS:140	NUM_POINTS:106	ALL_CLUSTERS:13	CLUSTERS_FILTERED:3	CLUSTERS_MERGED:4	
METRICS:::	TS:141	NUM_POINTS:106	ALL_CLUSTERS:14	CLUSTERS_FILTERED:4	CLUSTERS_MERGED:6	
METRICS:::	TS:142	NUM_POINTS:106	ALL_CLUSTERS:22	CLUSTERS_FILTERED:5	CLUSTERS_MERGED:8	
METRICS:::	TS:143	NUM_POINTS:106	ALL_CLUSTERS:16	CLUSTERS_FILTERED:3	CLUSTERS_MERGED:6	
METRICS:::	TS:144	NUM_POINTS:106	ALL_CLUSTERS:12	CLUSTERS_FILTERED:3	CLUSTERS_MERGED:5	
METRICS:::	TS:145	NUM_POINTS:106	ALL_CLUSTERS:14	CLUSTERS_FILTERED:4	CLUSTERS_MERGED:6	
METRICS:::	TS:146	NUM_POINTS:106	ALL_CLUSTERS:10	CLUSTERS_FILTERED:5	CLUSTERS_MERGED:7	
METRICS:::	TS:147	NUM_POINTS:106	ALL_CLUSTERS:8	CLUSTERS_FILTERED:5	CLUSTERS_MERGED:7	
METRICS:::	TS:148	NUM_POINTS:106	ALL_CLUSTERS:13	CLUSTERS_FILTERED:4	CLUSTERS_MERGED:5	
METRICS:::	TS:149	NUM_POINTS:106	ALL_CLUSTERS:19	CLUSTERS_FILTERED:4	CLUSTERS_MERGED:8	
METRICS:::	TS:150	NUM_POINTS:106	ALL_CLUSTERS:29	CLUSTERS_FILTERED:6	CLUSTERS_MERGED:10	
METRICS:::	TS:151	NUM_POINTS:106	ALL_CLUSTERS:24	CLUSTERS_FILTERED:6	CLUSTERS_MERGED:14	
METRICS:::	TS:152	NUM_POINTS:106	ALL_CLUSTERS:19	CLUSTERS_FILTERED:6	CLUSTERS_MERGED:11	
METRICS:::	TS:153	NUM_POINTS:106	ALL_CLUSTERS:21	CLUSTERS_FILTERED:5	CLUSTERS_MERGED:8	
METRICS:::	TS:154	NUM_POINTS:106	ALL_CLUSTERS:32	CLUSTERS_FILTERED:10	CLUSTERS_MERGED:13	
METRICS:::	TS:155	NUM_POINTS:105	ALL_CLUSTERS:26	CLUSTERS_FILTERED:8	CLUSTERS_MERGED:13	
METRICS:::	TS:156	NUM_POINTS:105	ALL_CLUSTERS:19	CLUSTERS_FILTERED:4	CLUSTERS_MERGED:10	
METRICS:::	TS:157	NUM_POINTS:105	ALL_CLUSTERS:15	CLUSTERS_FILTERED:4	CLUSTERS_MERGED:10	
METRICS:::	TS:158	NUM_POINTS:105	ALL_CLUSTERS:20	CLUSTERS_FILTERED:5	CLUSTERS_MERGED:7	
METRICS:::	TS:159	NUM_POINTS:105	ALL_CLUSTERS:19	CLUSTERS_FILTERED:3	CLUSTERS_MERGED:9	
METRICS:::	TS:160	NUM_POINTS:105	ALL_CLUSTERS:33	CLUSTERS_FILTERED:7	CLUSTERS_MERGED:14	
METRICS:::	TS:161	NUM_POINTS:105	ALL_CLUSTERS:21	CLUSTERS_FILTERED:5	CLUSTERS_MERGED:16	
METRICS:::	TS:162	NUM_POINTS:105	ALL_CLUSTERS:23	CLUSTERS_FILTERED:5	CLUSTERS_MERGED:18	
METRICS:::	TS:163	NUM_POINTS:105	ALL_CLUSTERS:26	CLUSTERS_FILTERED:6	CLUSTERS_MERGED:13	
METRICS:::	TS:164	NUM_POINTS:105	ALL_CLUSTERS:31	CLUSTERS_FILTERED:7	CLUSTERS_MERGED:18	
METRICS:::	TS:165	NUM_POINTS:105	ALL_CLUSTERS:20	CLUSTERS_FILTERED:6	CLUSTERS_MERGED:11	
METRICS:::	TS:166	NUM_POINTS:105	ALL_CLUSTERS:15	CLUSTERS_FILTERED:6	CLUSTERS_MERGED:8	
METRICS:::	TS:167	NUM_POINTS:105	ALL_CLUSTERS:16	CLUSTERS_FILTERED:5	CLUSTERS_MERGED:10	
METRICS:::	TS:168	NUM_POINTS:105	ALL_CLUSTERS:29	CLUSTERS_FILTERED:13	CLUSTERS_MERGED:18	
METRICS:::	TS:169	NUM_POINTS:105	ALL_CLUSTERS:29	CLUSTERS_FILTERED:11	CLUSTERS_MERGED:20	
METRICS:::	TS:170	NUM_POINTS:104	ALL_CLUSTERS:25	CLUSTERS_FILTERED:8	CLUSTERS_MERGED:19	
METRICS:::	TS:171	NUM_POINTS:104	ALL_CLUSTERS:30	CLUSTERS_FILTERED:14	CLUSTERS_MERGED:16	
METRICS:::	TS:172	NUM_POINTS:104	ALL_CLUSTERS:31	CLUSTERS_FILTERED:9	CLUSTERS_MERGED:10	
METRICS:::	TS:173	NUM_POINTS:104	ALL_CLUSTERS:22	CLUSTERS_FILTERED:12	CLUSTERS_MERGED:15	
METRICS:::	TS:174	NUM_POINTS:104	ALL_CLUSTERS:38	CLUSTERS_FILTERED:16	CLUSTERS_MERGED:25	
METRICS:::	TS:175	NUM_POINTS:103	ALL_CLUSTERS:38	CLUSTERS_FILTERED:12	CLUSTERS_MERGED:22	
METRICS:::	TS:176	NUM_POINTS:103	ALL_CLUSTERS:38	CLUSTERS_FILTERED:12	CLUSTERS_MERGED:21	
METRICS:::	TS:177	NUM_POINTS:102	ALL_CLUSTERS:34	CLUSTERS_FILTERED:15	CLUSTERS_MERGED:20	
METRICS:::	TS:178	NUM_POINTS:102	ALL_CLUSTERS:34	CLUSTERS_FILTERED:12	CLUSTERS_MERGED:17	
METRICS:::	TS:179	NUM_POINTS:102	ALL_CLUSTERS:35	CLUSTERS_FILTERED:14	CLUSTERS_MERGED:24	
METRICS:::	TS:180	NUM_POINTS:102	ALL_CLUSTERS:30	CLUSTERS_FILTERED:11	CLUSTERS_MERGED:18	
METRICS:::	TS:181	NUM_POINTS:102	ALL_CLUSTERS:27	CLUSTERS_FILTERED:7	CLUSTERS_MERGED:13	
METRICS:::	TS:182	NUM_POINTS:102	ALL_CLUSTERS:40	CLUSTERS_FILTERED:11	CLUSTERS_MERGED:19	
METRICS:::	TS:183	NUM_POINTS:102	ALL_CLUSTERS:49	CLUSTERS_FILTERED:14	CLUSTERS_MERGED:28	
METRICS:::	TS:184	NUM_POINTS:102	ALL_CLUSTERS:49	CLUSTERS_FILTERED:13	CLUSTERS_MERGED:25	
METRICS:::	TS:185	NUM_POINTS:102	ALL_CLUSTERS:49	CLUSTERS_FILTERED:11	CLUSTERS_MERGED:28	
METRICS:::	TS:186	NUM_POINTS:102	ALL_CLUSTERS:49	CLUSTERS_FILTERED:8	CLUSTERS_MERGED:22	
METRICS:::	TS:187	NUM_POINTS:102	ALL_CLUSTERS:59	CLUSTERS_FILTERED:13	CLUSTERS_MERGED:38	
METRICS:::	TS:188	NUM_POINTS:102	ALL_CLUSTERS:62	CLUSTERS_FILTERED:10	CLUSTERS_MERGED:48	
METRICS:::	TS:189	NUM_POINTS:102	ALL_CLUSTERS:67	CLUSTERS_FILTERED:16	CLUSTERS_MERGED:52	
METRICS:::	TS:190	NUM_POINTS:102	ALL_CLUSTERS:51	CLUSTERS_FILTERED:10	CLUSTERS_MERGED:39	
METRICS:::	TS:191	NUM_POINTS:101	ALL_CLUSTERS:61	CLUSTERS_FILTERED:15	CLUSTERS_MERGED:48	
METRICS:::	TS:192	NUM_POINTS:101	ALL_CLUSTERS:51	CLUSTERS_FILTERED:10	CLUSTERS_MERGED:36	
METRICS:::	TS:193	NUM_POINTS:101	ALL_CLUSTERS:53	CLUSTERS_FILTERED:14	CLUSTERS_MERGED:31	
METRICS:::	TS:194	NUM_POINTS:101	ALL_CLUSTERS:57	CLUSTERS_FILTERED:17	CLUSTERS_MERGED:40	
METRICS:::	TS:195	NUM_POINTS:101	ALL_CLUSTERS:49	CLUSTERS_FILTERED:13	CLUSTERS_MERGED:33	
METRICS:::	TS:196	NUM_POINTS:101	ALL_CLUSTERS:67	CLUSTERS_FILTERED:18	CLUSTERS_MERGED:42	
METRICS:::	TS:197	NUM_POINTS:101	ALL_CLUSTERS:74	CLUSTERS_FILTERED:17	CLUSTERS_MERGED:38	
METRICS:::	TS:198	NUM_POINTS:101	ALL_CLUSTERS:54	CLUSTERS_FILTERED:18	CLUSTERS_MERGED:38	
METRICS:::	TS:199	NUM_POINTS:101	ALL_CLUSTERS:51	CLUSTERS_FILTERED:9	CLUSTERS_MERGED:33	
METRICS:::	TS:200	NUM_POINTS:100	ALL_CLUSTERS:55	CLUSTERS_FILTERED:11	CLUSTERS_MERGED:29	
METRICS:::	TS:201	NUM_POINTS:99	ALL_CLUSTERS:39	CLUSTERS_FILTERED:9	CLUSTERS_MERGED:17	
METRICS:::	TS:202	NUM_POINTS:99	ALL_CLUSTERS:43	CLUSTERS_FILTERED:11	CLUSTERS_MERGED:21	
METRICS:::	TS:203	NUM_POINTS:99	ALL_CLUSTERS:61	CLUSTERS_FILTERED:13	CLUSTERS_MERGED:24	
METRICS:::	TS:204	NUM_POINTS:99	ALL_CLUSTERS:41	CLUSTERS_FILTERED:11	CLUSTERS_MERGED:24	
METRICS:::	TS:205	NUM_POINTS:99	ALL_CLUSTERS:35	CLUSTERS_FILTERED:9	CLUSTERS_MERGED:26	
METRICS:::	TS:206	NUM_POINTS:99	ALL_CLUSTERS:47	CLUSTERS_FILTERED:12	CLUSTERS_MERGED:27	
METRICS:::	TS:207	NUM_POINTS:99	ALL_CLUSTERS:57	CLUSTERS_FILTERED:17	CLUSTERS_MERGED:34	
METRICS:::	TS:208	NUM_POINTS:99	ALL_CLUSTERS:48	CLUSTERS_FILTERED:13	CLUSTERS_MERGED:25	
METRICS:::	TS:209	NUM_POINTS:99	ALL_CLUSTERS:44	CLUSTERS_FILTERED:6	CLUSTERS_MERGED:18	
METRICS:::	TS:210	NUM_POINTS:99	ALL_CLUSTERS:57	CLUSTERS_FILTERED:10	CLUSTERS_MERGED:25	
METRICS:::	TS:211	NUM_POINTS:99	ALL_CLUSTERS:62	CLUSTERS_FILTERED:11	CLUSTERS_MERGED:30	
METRICS:::	TS:212	NUM_POINTS:99	ALL_CLUSTERS:82	CLUSTERS_FILTERED:15	CLUSTERS_MERGED:38	
METRICS:::	TS:213	NUM_POINTS:99	ALL_CLUSTERS:75	CLUSTERS_FILTERED:17	CLUSTERS_MERGED:45	
METRICS:::	TS:214	NUM_POINTS:99	ALL_CLUSTERS:89	CLUSTERS_FILTERED:19	CLUSTERS_MERGED:61	
METRICS:::	TS:215	NUM_POINTS:99	ALL_CLUSTERS:63	CLUSTERS_FILTERED:19	CLUSTERS_MERGED:50	
METRICS:::	TS:216	NUM_POINTS:99	ALL_CLUSTERS:72	CLUSTERS_FILTERED:20	CLUSTERS_MERGED:44	
METRICS:::	TS:217	NUM_POINTS:99	ALL_CLUSTERS:75	CLUSTERS_FILTERED:12	CLUSTERS_MERGED:32	
METRICS:::	TS:218	NUM_POINTS:97	ALL_CLUSTERS:70	CLUSTERS_FILTERED:14	CLUSTERS_MERGED:35	
METRICS:::	TS:219	NUM_POINTS:97	ALL_CLUSTERS:76	CLUSTERS_FILTERED:16	CLUSTERS_MERGED:45	
METRICS:::	TS:220	NUM_POINTS:97	ALL_CLUSTERS:96	CLUSTERS_FILTERED:22	CLUSTERS_MERGED:60	
METRICS:::	TS:221	NUM_POINTS:97	ALL_CLUSTERS:91	CLUSTERS_FILTERED:17	CLUSTERS_MERGED:43	
METRICS:::	TS:222	NUM_POINTS:97	ALL_CLUSTERS:82	CLUSTERS_FILTERED:15	CLUSTERS_MERGED:51	
METRICS:::	TS:223	NUM_POINTS:97	ALL_CLUSTERS:93	CLUSTERS_FILTERED:20	CLUSTERS_MERGED:51	
METRICS:::	TS:224	NUM_POINTS:97	ALL_CLUSTERS:89	CLUSTERS_FILTERED:18	CLUSTERS_MERGED:52	
METRICS:::	TS:225	NUM_POINTS:97	ALL_CLUSTERS:61	CLUSTERS_FILTERED:14	CLUSTERS_MERGED:43	
METRICS:::	TS:226	NUM_POINTS:96	ALL_CLUSTERS:56	CLUSTERS_FILTERED:13	CLUSTERS_MERGED:27	
METRICS:::	TS:227	NUM_POINTS:96	ALL_CLUSTERS:55	CLUSTERS_FILTERED:13	CLUSTERS_MERGED:32	
METRICS:::	TS:228	NUM_POINTS:96	ALL_CLUSTERS:66	CLUSTERS_FILTERED:16	CLUSTERS_MERGED:30	
METRICS:::	TS:229	NUM_POINTS:95	ALL_CLUSTERS:43	CLUSTERS_FILTERED:11	CLUSTERS_MERGED:19	
METRICS:::	TS:230	NUM_POINTS:95	ALL_CLUSTERS:34	CLUSTERS_FILTERED:11	CLUSTERS_MERGED:19	
METRICS:::	TS:231	NUM_POINTS:95	ALL_CLUSTERS:31	CLUSTERS_FILTERED:4	CLUSTERS_MERGED:14	
METRICS:::	TS:232	NUM_POINTS:94	ALL_CLUSTERS:28	CLUSTERS_FILTERED:7	CLUSTERS_MERGED:16	
METRICS:::	TS:233	NUM_POINTS:94	ALL_CLUSTERS:42	CLUSTERS_FILTERED:13	CLUSTERS_MERGED:23	
METRICS:::	TS:234	NUM_POINTS:94	ALL_CLUSTERS:34	CLUSTERS_FILTERED:10	CLUSTERS_MERGED:16	
METRICS:::	TS:235	NUM_POINTS:94	ALL_CLUSTERS:43	CLUSTERS_FILTERED:14	CLUSTERS_MERGED:19	
METRICS:::	TS:236	NUM_POINTS:94	ALL_CLUSTERS:31	CLUSTERS_FILTERED:10	CLUSTERS_MERGED:19	
METRICS:::	TS:237	NUM_POINTS:94	ALL_CLUSTERS:10	CLUSTERS_FILTERED:7	CLUSTERS_MERGED:9	
METRICS:::	TS:238	NUM_POINTS:94	ALL_CLUSTERS:16	CLUSTERS_FILTERED:8	CLUSTERS_MERGED:10	
METRICS:::	TS:239	NUM_POINTS:94	ALL_CLUSTERS:15	CLUSTERS_FILTERED:6	CLUSTERS_MERGED:9	
METRICS:::	TS:240	NUM_POINTS:94	ALL_CLUSTERS:18	CLUSTERS_FILTERED:9	CLUSTERS_MERGED:10	
METRICS:::	TS:241	NUM_POINTS:93	ALL_CLUSTERS:19	CLUSTERS_FILTERED:9	CLUSTERS_MERGED:11	
METRICS:::	TS:242	NUM_POINTS:93	ALL_CLUSTERS:36	CLUSTERS_FILTERED:11	CLUSTERS_MERGED:19	
METRICS:::	TS:243	NUM_POINTS:93	ALL_CLUSTERS:46	CLUSTERS_FILTERED:15	CLUSTERS_MERGED:27	
METRICS:::	TS:244	NUM_POINTS:92	ALL_CLUSTERS:30	CLUSTERS_FILTERED:12	CLUSTERS_MERGED:16	
METRICS:::	TS:245	NUM_POINTS:92	ALL_CLUSTERS:33	CLUSTERS_FILTERED:11	CLUSTERS_MERGED:26	
METRICS:::	TS:246	NUM_POINTS:91	ALL_CLUSTERS:22	CLUSTERS_FILTERED:5	CLUSTERS_MERGED:14	
METRICS:::	TS:247	NUM_POINTS:91	ALL_CLUSTERS:29	CLUSTERS_FILTERED:6	CLUSTERS_MERGED:17	
METRICS:::	TS:248	NUM_POINTS:91	ALL_CLUSTERS:36	CLUSTERS_FILTERED:11	CLUSTERS_MERGED:22	
METRICS:::	TS:249	NUM_POINTS:91	ALL_CLUSTERS:37	CLUSTERS_FILTERED:5	CLUSTERS_MERGED:19	
METRICS:::	TS:250	NUM_POINTS:91	ALL_CLUSTERS:30	CLUSTERS_FILTERED:8	CLUSTERS_MERGED:22	
METRICS:::	TS:251	NUM_POINTS:90	ALL_CLUSTERS:22	CLUSTERS_FILTERED:8	CLUSTERS_MERGED:13	
METRICS:::	TS:252	NUM_POINTS:90	ALL_CLUSTERS:9	CLUSTERS_FILTERED:3	CLUSTERS_MERGED:6	
METRICS:::	TS:253	NUM_POINTS:90	ALL_CLUSTERS:15	CLUSTERS_FILTERED:5	CLUSTERS_MERGED:8	
METRICS:::	TS:254	NUM_POINTS:90	ALL_CLUSTERS:11	CLUSTERS_FILTERED:4	CLUSTERS_MERGED:6	
METRICS:::	TS:255	NUM_POINTS:89	ALL_CLUSTERS:12	CLUSTERS_FILTERED:5	CLUSTERS_MERGED:8	
METRICS:::	TS:256	NUM_POINTS:89	ALL_CLUSTERS:13	CLUSTERS_FILTERED:5	CLUSTERS_MERGED:8	
METRICS:::	TS:257	NUM_POINTS:87	ALL_CLUSTERS:11	CLUSTERS_FILTERED:4	CLUSTERS_MERGED:8	
METRICS:::	TS:258	NUM_POINTS:87	ALL_CLUSTERS:21	CLUSTERS_FILTERED:6	CLUSTERS_MERGED:12	
METRICS:::	TS:259	NUM_POINTS:87	ALL_CLUSTERS:27	CLUSTERS_FILTERED:5	CLUSTERS_MERGED:14	
METRICS:::	TS:260	NUM_POINTS:87	ALL_CLUSTERS:21	CLUSTERS_FILTERED:6	CLUSTERS_MERGED:11	
METRICS:::	TS:261	NUM_POINTS:87	ALL_CLUSTERS:29	CLUSTERS_FILTERED:6	CLUSTERS_MERGED:11	
METRICS:::	TS:262	NUM_POINTS:87	ALL_CLUSTERS:14	CLUSTERS_FILTERED:6	CLUSTERS_MERGED:9	
METRICS:::	TS:263	NUM_POINTS:87	ALL_CLUSTERS:28	CLUSTERS_FILTERED:11	CLUSTERS_MERGED:16	
METRICS:::	TS:264	NUM_POINTS:87	ALL_CLUSTERS:29	CLUSTERS_FILTERED:8	CLUSTERS_MERGED:13	
METRICS:::	TS:265	NUM_POINTS:87	ALL_CLUSTERS:31	CLUSTERS_FILTERED:12	CLUSTERS_MERGED:19	
METRICS:::	TS:266	NUM_POINTS:87	ALL_CLUSTERS:32	CLUSTERS_FILTERED:11	CLUSTERS_MERGED:20	
METRICS:::	TS:267	NUM_POINTS:87	ALL_CLUSTERS:29	CLUSTERS_FILTERED:9	CLUSTERS_MERGED:17	
METRICS:::	TS:268	NUM_POINTS:87	ALL_CLUSTERS:30	CLUSTERS_FILTERED:9	CLUSTERS_MERGED:15	
METRICS:::	TS:269	NUM_POINTS:87	ALL_CLUSTERS:19	CLUSTERS_FILTERED:6	CLUSTERS_MERGED:13	
METRICS:::	TS:270	NUM_POINTS:87	ALL_CLUSTERS:25	CLUSTERS_FILTERED:9	CLUSTERS_MERGED:16	
METRICS:::	TS:271	NUM_POINTS:87	ALL_CLUSTERS:37	CLUSTERS_FILTERED:9	CLUSTERS_MERGED:20	
METRICS:::	TS:272	NUM_POINTS:87	ALL_CLUSTERS:28	CLUSTERS_FILTERED:9	CLUSTERS_MERGED:20	
METRICS:::	TS:273	NUM_POINTS:86	ALL_CLUSTERS:22	CLUSTERS_FILTERED:9	CLUSTERS_MERGED:14	
METRICS:::	TS:274	NUM_POINTS:86	ALL_CLUSTERS:23	CLUSTERS_FILTERED:7	CLUSTERS_MERGED:13	
METRICS:::	TS:275	NUM_POINTS:86	ALL_CLUSTERS:14	CLUSTERS_FILTERED:6	CLUSTERS_MERGED:13	
METRICS:::	TS:276	NUM_POINTS:85	ALL_CLUSTERS:18	CLUSTERS_FILTERED:7	CLUSTERS_MERGED:16	
METRICS:::	TS:277	NUM_POINTS:85	ALL_CLUSTERS:24	CLUSTERS_FILTERED:6	CLUSTERS_MERGED:16	
METRICS:::	TS:278	NUM_POINTS:85	ALL_CLUSTERS:30	CLUSTERS_FILTERED:5	CLUSTERS_MERGED:18	
METRICS:::	TS:279	NUM_POINTS:85	ALL_CLUSTERS:37	CLUSTERS_FILTERED:10	CLUSTERS_MERGED:23	
METRICS:::	TS:280	NUM_POINTS:84	ALL_CLUSTERS:33	CLUSTERS_FILTERED:10	CLUSTERS_MERGED:17	
METRICS:::	TS:281	NUM_POINTS:84	ALL_CLUSTERS:33	CLUSTERS_FILTERED:9	CLUSTERS_MERGED:17	
METRICS:::	TS:282	NUM_POINTS:84	ALL_CLUSTERS:41	CLUSTERS_FILTERED:11	CLUSTERS_MERGED:24	
METRICS:::	TS:283	NUM_POINTS:84	ALL_CLUSTERS:32	CLUSTERS_FILTERED:6	CLUSTERS_MERGED:22	
METRICS:::	TS:284	NUM_POINTS:84	ALL_CLUSTERS:30	CLUSTERS_FILTERED:8	CLUSTERS_MERGED:14	
METRICS:::	TS:285	NUM_POINTS:84	ALL_CLUSTERS:28	CLUSTERS_FILTERED:8	CLUSTERS_MERGED:14	
METRICS:::	TS:286	NUM_POINTS:83	ALL_CLUSTERS:12	CLUSTERS_FILTERED:4	CLUSTERS_MERGED:8	
METRICS:::	TS:287	NUM_POINTS:83	ALL_CLUSTERS:11	CLUSTERS_FILTERED:4	CLUSTERS_MERGED:7	
METRICS:::	TS:288	NUM_POINTS:83	ALL_CLUSTERS:17	CLUSTERS_FILTERED:5	CLUSTERS_MERGED:11	
METRICS:::	TS:289	NUM_POINTS:83	ALL_CLUSTERS:34	CLUSTERS_FILTERED:12	CLUSTERS_MERGED:20	
METRICS:::	TS:290	NUM_POINTS:83	ALL_CLUSTERS:26	CLUSTERS_FILTERED:7	CLUSTERS_MERGED:22	
METRICS:::	TS:291	NUM_POINTS:83	ALL_CLUSTERS:24	CLUSTERS_FILTERED:5	CLUSTERS_MERGED:21	
METRICS:::	TS:292	NUM_POINTS:83	ALL_CLUSTERS:22	CLUSTERS_FILTERED:4	CLUSTERS_MERGED:11	
METRICS:::	TS:293	NUM_POINTS:83	ALL_CLUSTERS:20	CLUSTERS_FILTERED:4	CLUSTERS_MERGED:14	
METRICS:::	TS:294	NUM_POINTS:83	ALL_CLUSTERS:31	CLUSTERS_FILTERED:7	CLUSTERS_MERGED:16	
METRICS:::	TS:295	NUM_POINTS:83	ALL_CLUSTERS:39	CLUSTERS_FILTERED:12	CLUSTERS_MERGED:24	
METRICS:::	TS:296	NUM_POINTS:83	ALL_CLUSTERS:40	CLUSTERS_FILTERED:7	CLUSTERS_MERGED:26	
METRICS:::	TS:297	NUM_POINTS:83	ALL_CLUSTERS:41	CLUSTERS_FILTERED:4	CLUSTERS_MERGED:24	
METRICS:::	TS:298	NUM_POINTS:83	ALL_CLUSTERS:38	CLUSTERS_FILTERED:6	CLUSTERS_MERGED:28	
METRICS:::	TS:299	NUM_POINTS:83	ALL_CLUSTERS:24	CLUSTERS_FILTERED:7	CLUSTERS_MERGED:17	
METRICS:::	TS:300	NUM_POINTS:83	ALL_CLUSTERS:14	CLUSTERS_FILTERED:4	CLUSTERS_MERGED:8	
METRICS:::	TS:301	NUM_POINTS:83	ALL_CLUSTERS:13	CLUSTERS_FILTERED:5	CLUSTERS_MERGED:8	
METRICS:::	TS:302	NUM_POINTS:83	ALL_CLUSTERS:10	CLUSTERS_FILTERED:6	CLUSTERS_MERGED:6	
METRICS:::	TS:303	NUM_POINTS:83	ALL_CLUSTERS:12	CLUSTERS_FILTERED:4	CLUSTERS_MERGED:7	
METRICS:::	TS:304	NUM_POINTS:83	ALL_CLUSTERS:9	CLUSTERS_FILTERED:5	CLUSTERS_MERGED:5	
METRICS:::	TS:305	NUM_POINTS:83	ALL_CLUSTERS:18	CLUSTERS_FILTERED:6	CLUSTERS_MERGED:7	
METRICS:::	TS:306	NUM_POINTS:83	ALL_CLUSTERS:4	CLUSTERS_FILTERED:2	CLUSTERS_MERGED:2	
METRICS:::	TS:307	NUM_POINTS:83	ALL_CLUSTERS:3	CLUSTERS_FILTERED:1	CLUSTERS_MERGED:2	
METRICS:::	TS:308	NUM_POINTS:83	ALL_CLUSTERS:0	CLUSTERS_FILTERED:0	CLUSTERS_MERGED:0	
METRICS:::	TS:309	NUM_POINTS:83	ALL_CLUSTERS:9	CLUSTERS_FILTERED:4	CLUSTERS_MERGED:3	
METRICS:::	TS:310	NUM_POINTS:83	ALL_CLUSTERS:15	CLUSTERS_FILTERED:4	CLUSTERS_MERGED:5	
METRICS:::	TS:311	NUM_POINTS:83	ALL_CLUSTERS:12	CLUSTERS_FILTERED:3	CLUSTERS_MERGED:6	
METRICS:::	TS:312	NUM_POINTS:83	ALL_CLUSTERS:14	CLUSTERS_FILTERED:3	CLUSTERS_MERGED:4	
METRICS:::	TS:313	NUM_POINTS:83	ALL_CLUSTERS:8	CLUSTERS_FILTERED:3	CLUSTERS_MERGED:5	
METRICS:::	TS:314	NUM_POINTS:83	ALL_CLUSTERS:9	CLUSTERS_FILTERED:4	CLUSTERS_MERGED:6	
METRICS:::	TS:315	NUM_POINTS:83	ALL_CLUSTERS:15	CLUSTERS_FILTERED:3	CLUSTERS_MERGED:7	
METRICS:::	TS:316	NUM_POINTS:83	ALL_CLUSTERS:13	CLUSTERS_FILTERED:5	CLUSTERS_MERGED:7	
METRICS:::	TS:317	NUM_POINTS:83	ALL_CLUSTERS:11	CLUSTERS_FILTERED:4	CLUSTERS_MERGED:7	
METRICS:::	TS:318	NUM_POINTS:83	ALL_CLUSTERS:20	CLUSTERS_FILTERED:6	CLUSTERS_MERGED:9	
METRICS:::	TS:319	NUM_POINTS:82	ALL_CLUSTERS:10	CLUSTERS_FILTERED:5	CLUSTERS_MERGED:6	
METRICS:::	TS:320	NUM_POINTS:82	ALL_CLUSTERS:9	CLUSTERS_FILTERED:3	CLUSTERS_MERGED:6	
METRICS:::	TS:321	NUM_POINTS:82	ALL_CLUSTERS:12	CLUSTERS_FILTERED:4	CLUSTERS_MERGED:8	
METRICS:::	TS:322	NUM_POINTS:82	ALL_CLUSTERS:14	CLUSTERS_FILTERED:5	CLUSTERS_MERGED:8	
METRICS:::	TS:323	NUM_POINTS:82	ALL_CLUSTERS:13	CLUSTERS_FILTERED:5	CLUSTERS_MERGED:9	
METRICS:::	TS:324	NUM_POINTS:82	ALL_CLUSTERS:19	CLUSTERS_FILTERED:8	CLUSTERS_MERGED:13	
METRICS:::	TS:325	NUM_POINTS:82	ALL_CLUSTERS:18	CLUSTERS_FILTERED:4	CLUSTERS_MERGED:12	
METRICS:::	TS:326	NUM_POINTS:82	ALL_CLUSTERS:19	CLUSTERS_FILTERED:8	CLUSTERS_MERGED:13	
METRICS:::	TS:327	NUM_POINTS:82	ALL_CLUSTERS:15	CLUSTERS_FILTERED:7	CLUSTERS_MERGED:15	
METRICS:::	TS:328	NUM_POINTS:80	ALL_CLUSTERS:11	CLUSTERS_FILTERED:6	CLUSTERS_MERGED:11	
METRICS:::	TS:329	NUM_POINTS:80	ALL_CLUSTERS:14	CLUSTERS_FILTERED:7	CLUSTERS_MERGED:12	
METRICS:::	TS:330	NUM_POINTS:80	ALL_CLUSTERS:14	CLUSTERS_FILTERED:5	CLUSTERS_MERGED:12	
METRICS:::	TS:331	NUM_POINTS:80	ALL_CLUSTERS:18	CLUSTERS_FILTERED:4	CLUSTERS_MERGED:9	
METRICS:::	TS:332	NUM_POINTS:80	ALL_CLUSTERS:19	CLUSTERS_FILTERED:9	CLUSTERS_MERGED:11	
METRICS:::	TS:333	NUM_POINTS:80	ALL_CLUSTERS:18	CLUSTERS_FILTERED:3	CLUSTERS_MERGED:11	
METRICS:::	TS:334	NUM_POINTS:80	ALL_CLUSTERS:15	CLUSTERS_FILTERED:1	CLUSTERS_MERGED:9	
METRICS:::	TS:335	NUM_POINTS:80	ALL_CLUSTERS:18	CLUSTERS_FILTERED:3	CLUSTERS_MERGED:11	
METRICS:::	TS:336	NUM_POINTS:80	ALL_CLUSTERS:18	CLUSTERS_FILTERED:3	CLUSTERS_MERGED:13	
METRICS:::	TS:337	NUM_POINTS:80	ALL_CLUSTERS:15	CLUSTERS_FILTERED:3	CLUSTERS_MERGED:10	
METRICS:::	TS:338	NUM_POINTS:80	ALL_CLUSTERS:29	CLUSTERS_FILTERED:7	CLUSTERS_MERGED:12	
METRICS:::	TS:339	NUM_POINTS:80	ALL_CLUSTERS:15	CLUSTERS_FILTERED:4	CLUSTERS_MERGED:10	
METRICS:::	TS:340	NUM_POINTS:80	ALL_CLUSTERS:17	CLUSTERS_FILTERED:4	CLUSTERS_MERGED:10	
METRICS:::	TS:341	NUM_POINTS:80	ALL_CLUSTERS:13	CLUSTERS_FILTERED:3	CLUSTERS_MERGED:8	
METRICS:::	TS:342	NUM_POINTS:80	ALL_CLUSTERS:9	CLUSTERS_FILTERED:1	CLUSTERS_MERGED:6	
METRICS:::	TS:343	NUM_POINTS:80	ALL_CLUSTERS:13	CLUSTERS_FILTERED:3	CLUSTERS_MERGED:4	
METRICS:::	TS:344	NUM_POINTS:80	ALL_CLUSTERS:5	CLUSTERS_FILTERED:2	CLUSTERS_MERGED:3	
METRICS:::	TS:345	NUM_POINTS:80	ALL_CLUSTERS:8	CLUSTERS_FILTERED:1	CLUSTERS_MERGED:4	
METRICS:::	TS:346	NUM_POINTS:80	ALL_CLUSTERS:15	CLUSTERS_FILTERED:7	CLUSTERS_MERGED:7	
METRICS:::	TS:347	NUM_POINTS:80	ALL_CLUSTERS:4	CLUSTERS_FILTERED:2	CLUSTERS_MERGED:3	
METRICS:::	TS:348	NUM_POINTS:80	ALL_CLUSTERS:5	CLUSTERS_FILTERED:2	CLUSTERS_MERGED:3	
METRICS:::	TS:349	NUM_POINTS:80	ALL_CLUSTERS:5	CLUSTERS_FILTERED:1	CLUSTERS_MERGED:4	
METRICS:::	TS:350	NUM_POINTS:80	ALL_CLUSTERS:9	CLUSTERS_FILTERED:3	CLUSTERS_MERGED:5	
METRICS:::	TS:351	NUM_POINTS:80	ALL_CLUSTERS:5	CLUSTERS_FILTERED:1	CLUSTERS_MERGED:4	
METRICS:::	TS:352	NUM_POINTS:80	ALL_CLUSTERS:1	CLUSTERS_FILTERED:1	CLUSTERS_MERGED:1	
METRICS:::	TS:353	NUM_POINTS:80	ALL_CLUSTERS:2	CLUSTERS_FILTERED:1	CLUSTERS_MERGED:1	
METRICS:::	TS:354	NUM_POINTS:80	ALL_CLUSTERS:0	CLUSTERS_FILTERED:0	CLUSTERS_MERGED:0	
METRICS:::	TS:355	NUM_POINTS:80	ALL_CLUSTERS:0	CLUSTERS_FILTERED:0	CLUSTERS_MERGED:0	
METRICS:::	TS:356	NUM_POINTS:80	ALL_CLUSTERS:4	CLUSTERS_FILTERED:2	CLUSTERS_MERGED:2	
METRICS:::	TS:357	NUM_POINTS:80	ALL_CLUSTERS:1	CLUSTERS_FILTERED:1	CLUSTERS_MERGED:1	
METRICS:::	TS:358	NUM_POINTS:80	ALL_CLUSTERS:4	CLUSTERS_FILTERED:3	CLUSTERS_MERGED:3	
METRICS:::	TS:359	NUM_POINTS:80	ALL_CLUSTERS:10	CLUSTERS_FILTERED:2	CLUSTERS_MERGED:4	
METRICS:::	TS:360	NUM_POINTS:80	ALL_CLUSTERS:10	CLUSTERS_FILTERED:4	CLUSTERS_MERGED:5	
METRICS:::	TS:361	NUM_POINTS:80	ALL_CLUSTERS:0	CLUSTERS_FILTERED:0	CLUSTERS_MERGED:0	
METRICS:::	TS:362	NUM_POINTS:79	ALL_CLUSTERS:0	CLUSTERS_FILTERED:0	CLUSTERS_MERGED:0	
METRICS:::	TS:363	NUM_POINTS:79	ALL_CLUSTERS:0	CLUSTERS_FILTERED:0	CLUSTERS_MERGED:0	
METRICS:::	TS:364	NUM_POINTS:79	ALL_CLUSTERS:1	CLUSTERS_FILTERED:1	CLUSTERS_MERGED:1	
METRICS:::	TS:365	NUM_POINTS:79	ALL_CLUSTERS:0	CLUSTERS_FILTERED:0	CLUSTERS_MERGED:0	
METRICS:::	TS:366	NUM_POINTS:79	ALL_CLUSTERS:0	CLUSTERS_FILTERED:0	CLUSTERS_MERGED:0	
METRICS:::	TS:367	NUM_POINTS:79	ALL_CLUSTERS:4	CLUSTERS_FILTERED:2	CLUSTERS_MERGED:2	
METRICS:::	TS:368	NUM_POINTS:79	ALL_CLUSTERS:3	CLUSTERS_FILTERED:2	CLUSTERS_MERGED:2	
METRICS:::	TS:369	NUM_POINTS:79	ALL_CLUSTERS:3	CLUSTERS_FILTERED:1	CLUSTERS_MERGED:1	
METRICS:::	TS:370	NUM_POINTS:79	ALL_CLUSTERS:2	CLUSTERS_FILTERED:1	CLUSTERS_MERGED:1	
METRICS:::	TS:371	NUM_POINTS:79	ALL_CLUSTERS:2	CLUSTERS_FILTERED:1	CLUSTERS_MERGED:1	
METRICS:::	TS:372	NUM_POINTS:79	ALL_CLUSTERS:3	CLUSTERS_FILTERED:2	CLUSTERS_MERGED:2	
METRICS:::	TS:373	NUM_POINTS:78	ALL_CLUSTERS:0	CLUSTERS_FILTERED:0	CLUSTERS_MERGED:0	
METRICS:::	TS:374	NUM_POINTS:78	ALL_CLUSTERS:3	CLUSTERS_FILTERED:1	CLUSTERS_MERGED:1	
METRICS:::	TS:375	NUM_POINTS:78	ALL_CLUSTERS:4	CLUSTERS_FILTERED:3	CLUSTERS_MERGED:3	
METRICS:::	TS:376	NUM_POINTS:77	ALL_CLUSTERS:9	CLUSTERS_FILTERED:3	CLUSTERS_MERGED:5	
METRICS:::	TS:377	NUM_POINTS:75	ALL_CLUSTERS:12	CLUSTERS_FILTERED:4	CLUSTERS_MERGED:5	
METRICS:::	TS:378	NUM_POINTS:75	ALL_CLUSTERS:15	CLUSTERS_FILTERED:3	CLUSTERS_MERGED:8	
METRICS:::	TS:379	NUM_POINTS:75	ALL_CLUSTERS:16	CLUSTERS_FILTERED:3	CLUSTERS_MERGED:10	
METRICS:::	TS:380	NUM_POINTS:75	ALL_CLUSTERS:14	CLUSTERS_FILTERED:3	CLUSTERS_MERGED:11	
METRICS:::	TS:381	NUM_POINTS:75	ALL_CLUSTERS:12	CLUSTERS_FILTERED:1	CLUSTERS_MERGED:4	
METRICS:::	TS:382	NUM_POINTS:75	ALL_CLUSTERS:9	CLUSTERS_FILTERED:1	CLUSTERS_MERGED:4	
METRICS:::	TS:383	NUM_POINTS:75	ALL_CLUSTERS:8	CLUSTERS_FILTERED:1	CLUSTERS_MERGED:4	
METRICS:::	TS:384	NUM_POINTS:75	ALL_CLUSTERS:3	CLUSTERS_FILTERED:1	CLUSTERS_MERGED:3	
METRICS:::	TS:385	NUM_POINTS:75	ALL_CLUSTERS:3	CLUSTERS_FILTERED:2	CLUSTERS_MERGED:2	
METRICS:::	TS:386	NUM_POINTS:75	ALL_CLUSTERS:2	CLUSTERS_FILTERED:1	CLUSTERS_MERGED:1	
METRICS:::	TS:387	NUM_POINTS:75	ALL_CLUSTERS:2	CLUSTERS_FILTERED:1	CLUSTERS_MERGED:1	
METRICS:::	TS:388	NUM_POINTS:75	ALL_CLUSTERS:0	CLUSTERS_FILTERED:0	CLUSTERS_MERGED:0	
METRICS:::	TS:389	NUM_POINTS:75	ALL_CLUSTERS:5	CLUSTERS_FILTERED:3	CLUSTERS_MERGED:3	
METRICS:::	TS:390	NUM_POINTS:75	ALL_CLUSTERS:2	CLUSTERS_FILTERED:1	CLUSTERS_MERGED:1	
METRICS:::	TS:391	NUM_POINTS:75	ALL_CLUSTERS:2	CLUSTERS_FILTERED:1	CLUSTERS_MERGED:1	
METRICS:::	TS:392	NUM_POINTS:75	ALL_CLUSTERS:3	CLUSTERS_FILTERED:1	CLUSTERS_MERGED:1	
METRICS:::	TS:393	NUM_POINTS:75	ALL_CLUSTERS:0	CLUSTERS_FILTERED:0	CLUSTERS_MERGED:0	
METRICS:::	TS:394	NUM_POINTS:75	ALL_CLUSTERS:0	CLUSTERS_FILTERED:0	CLUSTERS_MERGED:0	
METRICS:::	TS:395	NUM_POINTS:75	ALL_CLUSTERS:2	CLUSTERS_FILTERED:1	CLUSTERS_MERGED:1	
METRICS:::	TS:396	NUM_POINTS:75	ALL_CLUSTERS:5	CLUSTERS_FILTERED:3	CLUSTERS_MERGED:3	
METRICS:::	TS:397	NUM_POINTS:75	ALL_CLUSTERS:0	CLUSTERS_FILTERED:0	CLUSTERS_MERGED:0	
METRICS:::	TS:398	NUM_POINTS:75	ALL_CLUSTERS:0	CLUSTERS_FILTERED:0	CLUSTERS_MERGED:0	
METRICS:::	TS:399	NUM_POINTS:75	ALL_CLUSTERS:0	CLUSTERS_FILTERED:0	CLUSTERS_MERGED:0	
METRICS:::	TS:400	NUM_POINTS:75	ALL_CLUSTERS:2	CLUSTERS_FILTERED:1	CLUSTERS_MERGED:1	
METRICS:::	TS:401	NUM_POINTS:75	ALL_CLUSTERS:3	CLUSTERS_FILTERED:3	CLUSTERS_MERGED:3	
METRICS:::	TS:402	NUM_POINTS:75	ALL_CLUSTERS:7	CLUSTERS_FILTERED:2	CLUSTERS_MERGED:4	
METRICS:::	TS:403	NUM_POINTS:75	ALL_CLUSTERS:5	CLUSTERS_FILTERED:2	CLUSTERS_MERGED:4	
METRICS:::	TS:404	NUM_POINTS:75	ALL_CLUSTERS:7	CLUSTERS_FILTERED:3	CLUSTERS_MERGED:3	
METRICS:::	TS:405	NUM_POINTS:75	ALL_CLUSTERS:9	CLUSTERS_FILTERED:4	CLUSTERS_MERGED:4	
METRICS:::	TS:406	NUM_POINTS:75	ALL_CLUSTERS:10	CLUSTERS_FILTERED:4	CLUSTERS_MERGED:5	
METRICS:::	TS:407	NUM_POINTS:75	ALL_CLUSTERS:12	CLUSTERS_FILTERED:4	CLUSTERS_MERGED:8	
METRICS:::	TS:408	NUM_POINTS:75	ALL_CLUSTERS:5	CLUSTERS_FILTERED:2	CLUSTERS_MERGED:4	
METRICS:::	TS:409	NUM_POINTS:75	ALL_CLUSTERS:7	CLUSTERS_FILTERED:1	CLUSTERS_MERGED:3	
METRICS:::	TS:410	NUM_POINTS:75	ALL_CLUSTERS:9	CLUSTERS_FILTERED:1	CLUSTERS_MERGED:4	
METRICS:::	TS:411	NUM_POINTS:75	ALL_CLUSTERS:13	CLUSTERS_FILTERED:3	CLUSTERS_MERGED:5	
METRICS:::	TS:412	NUM_POINTS:75	ALL_CLUSTERS:10	CLUSTERS_FILTERED:2	CLUSTERS_MERGED:4	
METRICS:::	TS:413	NUM_POINTS:75	ALL_CLUSTERS:11	CLUSTERS_FILTERED:3	CLUSTERS_MERGED:5	
METRICS:::	TS:414	NUM_POINTS:75	ALL_CLUSTERS:8	CLUSTERS_FILTERED:1	CLUSTERS_MERGED:5	
METRICS:::	TS:415	NUM_POINTS:75	ALL_CLUSTERS:9	CLUSTERS_FILTERED:3	CLUSTERS_MERGED:4	
METRICS:::	TS:416	NUM_POINTS:75	ALL_CLUSTERS:7	CLUSTERS_FILTERED:1	CLUSTERS_MERGED:3	
METRICS:::	TS:417	NUM_POINTS:75	ALL_CLUSTERS:10	CLUSTERS_FILTERED:6	CLUSTERS_MERGED:6	
METRICS:::	TS:418	NUM_POINTS:75	ALL_CLUSTERS:5	CLUSTERS_FILTERED:3	CLUSTERS_MERGED:5	
METRICS:::	TS:419	NUM_POINTS:74	ALL_CLUSTERS:0	CLUSTERS_FILTERED:0	CLUSTERS_MERGED:0	
METRICS:::	TS:420	NUM_POINTS:73	ALL_CLUSTERS:0	CLUSTERS_FILTERED:0	CLUSTERS_MERGED:0	
METRICS:::	TS:421	NUM_POINTS:73	ALL_CLUSTERS:0	CLUSTERS_FILTERED:0	CLUSTERS_MERGED:0	
METRICS:::	TS:422	NUM_POINTS:73	ALL_CLUSTERS:1	CLUSTERS_FILTERED:1	CLUSTERS_MERGED:1	
METRICS:::	TS:423	NUM_POINTS:73	ALL_CLUSTERS:7	CLUSTERS_FILTERED:3	CLUSTERS_MERGED:3	
METRICS:::	TS:424	NUM_POINTS:73	ALL_CLUSTERS:7	CLUSTERS_FILTERED:2	CLUSTERS_MERGED:4	
METRICS:::	TS:425	NUM_POINTS:73	ALL_CLUSTERS:3	CLUSTERS_FILTERED:1	CLUSTERS_MERGED:2	
METRICS:::	TS:426	NUM_POINTS:73	ALL_CLUSTERS:7	CLUSTERS_FILTERED:2	CLUSTERS_MERGED:3	
METRICS:::	TS:427	NUM_POINTS:73	ALL_CLUSTERS:3	CLUSTERS_FILTERED:1	CLUSTERS_MERGED:1	
METRICS:::	TS:428	NUM_POINTS:73	ALL_CLUSTERS:0	CLUSTERS_FILTERED:0	CLUSTERS_MERGED:0	
METRICS:::	TS:429	NUM_POINTS:73	ALL_CLUSTERS:0	CLUSTERS_FILTERED:0	CLUSTERS_MERGED:0	
METRICS:::	TS:430	NUM_POINTS:73	ALL_CLUSTERS:5	CLUSTERS_FILTERED:3	CLUSTERS_MERGED:3	
METRICS:::	TS:431	NUM_POINTS:73	ALL_CLUSTERS:3	CLUSTERS_FILTERED:1	CLUSTERS_MERGED:1	
METRICS:::	TS:432	NUM_POINTS:72	ALL_CLUSTERS:3	CLUSTERS_FILTERED:2	CLUSTERS_MERGED:2	
METRICS:::	TS:433	NUM_POINTS:72	ALL_CLUSTERS:1	CLUSTERS_FILTERED:1	CLUSTERS_MERGED:1	
METRICS:::	TS:434	NUM_POINTS:72	ALL_CLUSTERS:1	CLUSTERS_FILTERED:1	CLUSTERS_MERGED:1	
METRICS:::	TS:435	NUM_POINTS:72	ALL_CLUSTERS:5	CLUSTERS_FILTERED:1	CLUSTERS_MERGED:2	
METRICS:::	TS:436	NUM_POINTS:72	ALL_CLUSTERS:3	CLUSTERS_FILTERED:1	CLUSTERS_MERGED:1	
METRICS:::	TS:437	NUM_POINTS:72	ALL_CLUSTERS:0	CLUSTERS_FILTERED:0	CLUSTERS_MERGED:0	
METRICS:::	TS:438	NUM_POINTS:72	ALL_CLUSTERS:2	CLUSTERS_FILTERED:1	CLUSTERS_MERGED:1	
METRICS:::	TS:439	NUM_POINTS:72	ALL_CLUSTERS:3	CLUSTERS_FILTERED:1	CLUSTERS_MERGED:1	
METRICS:::	TS:440	NUM_POINTS:72	ALL_CLUSTERS:0	CLUSTERS_FILTERED:0	CLUSTERS_MERGED:0	
METRICS:::	TS:441	NUM_POINTS:72	ALL_CLUSTERS:0	CLUSTERS_FILTERED:0	CLUSTERS_MERGED:0	
METRICS:::	TS:442	NUM_POINTS:71	ALL_CLUSTERS:0	CLUSTERS_FILTERED:0	CLUSTERS_MERGED:0	
METRICS:::	TS:443	NUM_POINTS:71	ALL_CLUSTERS:0	CLUSTERS_FILTERED:0	CLUSTERS_MERGED:0	
METRICS:::	TS:444	NUM_POINTS:71	ALL_CLUSTERS:0	CLUSTERS_FILTERED:0	CLUSTERS_MERGED:0	
METRICS:::	TS:445	NUM_POINTS:71	ALL_CLUSTERS:0	CLUSTERS_FILTERED:0	CLUSTERS_MERGED:0	
METRICS:::	TS:446	NUM_POINTS:70	ALL_CLUSTERS:0	CLUSTERS_FILTERED:0	CLUSTERS_MERGED:0	
METRICS:::	TS:447	NUM_POINTS:70	ALL_CLUSTERS:0	CLUSTERS_FILTERED:0	CLUSTERS_MERGED:0	
METRICS:::	TS:448	NUM_POINTS:70	ALL_CLUSTERS:0	CLUSTERS_FILTERED:0	CLUSTERS_MERGED:0	
METRICS:::	TS:449	NUM_POINTS:69	ALL_CLUSTERS:0	CLUSTERS_FILTERED:0	CLUSTERS_MERGED:0	
METRICS:::	TS:450	NUM_POINTS:69	ALL_CLUSTERS:0	CLUSTERS_FILTERED:0	CLUSTERS_MERGED:0	
METRICS:::	TS:451	NUM_POINTS:68	ALL_CLUSTERS:0	CLUSTERS_FILTERED:0	CLUSTERS_MERGED:0	
METRICS:::	TS:452	NUM_POINTS:68	ALL_CLUSTERS:0	CLUSTERS_FILTERED:0	CLUSTERS_MERGED:0	
METRICS:::	TS:453	NUM_POINTS:68	ALL_CLUSTERS:0	CLUSTERS_FILTERED:0	CLUSTERS_MERGED:0	
METRICS:::	TS:454	NUM_POINTS:68	ALL_CLUSTERS:0	CLUSTERS_FILTERED:0	CLUSTERS_MERGED:0	
METRICS:::	TS:455	NUM_POINTS:68	ALL_CLUSTERS:0	CLUSTERS_FILTERED:0	CLUSTERS_MERGED:0	
METRICS:::	TS:456	NUM_POINTS:68	ALL_CLUSTERS:0	CLUSTERS_FILTERED:0	CLUSTERS_MERGED:0	
METRICS:::	TS:457	NUM_POINTS:68	ALL_CLUSTERS:0	CLUSTERS_FILTERED:0	CLUSTERS_MERGED:0	
METRICS:::	TS:458	NUM_POINTS:68	ALL_CLUSTERS:0	CLUSTERS_FILTERED:0	CLUSTERS_MERGED:0	
METRICS:::	TS:459	NUM_POINTS:68	ALL_CLUSTERS:2	CLUSTERS_FILTERED:1	CLUSTERS_MERGED:1	
METRICS:::	TS:460	NUM_POINTS:68	ALL_CLUSTERS:0	CLUSTERS_FILTERED:0	CLUSTERS_MERGED:0	
METRICS:::	TS:461	NUM_POINTS:68	ALL_CLUSTERS:2	CLUSTERS_FILTERED:1	CLUSTERS_MERGED:1	
METRICS:::	TS:462	NUM_POINTS:67	ALL_CLUSTERS:4	CLUSTERS_FILTERED:1	CLUSTERS_MERGED:1	
METRICS:::	TS:463	NUM_POINTS:67	ALL_CLUSTERS:2	CLUSTERS_FILTERED:1	CLUSTERS_MERGED:1	
METRICS:::	TS:464	NUM_POINTS:67	ALL_CLUSTERS:0	CLUSTERS_FILTERED:0	CLUSTERS_MERGED:0	
METRICS:::	TS:465	NUM_POINTS:67	ALL_CLUSTERS:0	CLUSTERS_FILTERED:0	CLUSTERS_MERGED:0	
METRICS:::	TS:466	NUM_POINTS:67	ALL_CLUSTERS:0	CLUSTERS_FILTERED:0	CLUSTERS_MERGED:0	
METRICS:::	TS:467	NUM_POINTS:66	ALL_CLUSTERS:0	CLUSTERS_FILTERED:0	CLUSTERS_MERGED:0	
METRICS:::	TS:468	NUM_POINTS:66	ALL_CLUSTERS:0	CLUSTERS_FILTERED:0	CLUSTERS_MERGED:0	
METRICS:::	TS:469	NUM_POINTS:66	ALL_CLUSTERS:0	CLUSTERS_FILTERED:0	CLUSTERS_MERGED:0	
METRICS:::	TS:470	NUM_POINTS:66	ALL_CLUSTERS:0	CLUSTERS_FILTERED:0	CLUSTERS_MERGED:0	
METRICS:::	TS:471	NUM_POINTS:66	ALL_CLUSTERS:2	CLUSTERS_FILTERED:1	CLUSTERS_MERGED:1	
METRICS:::	TS:472	NUM_POINTS:66	ALL_CLUSTERS:2	CLUSTERS_FILTERED:1	CLUSTERS_MERGED:1	
METRICS:::	TS:473	NUM_POINTS:66	ALL_CLUSTERS:0	CLUSTERS_FILTERED:0	CLUSTERS_MERGED:0	
METRICS:::	TS:474	NUM_POINTS:66	ALL_CLUSTERS:0	CLUSTERS_FILTERED:0	CLUSTERS_MERGED:0	
METRICS:::	TS:475	NUM_POINTS:66	ALL_CLUSTERS:0	CLUSTERS_FILTERED:0	CLUSTERS_MERGED:0	
METRICS:::	TS:476	NUM_POINTS:66	ALL_CLUSTERS:0	CLUSTERS_FILTERED:0	CLUSTERS_MERGED:0	
METRICS:::	TS:477	NUM_POINTS:66	ALL_CLUSTERS:2	CLUSTERS_FILTERED:1	CLUSTERS_MERGED:1	
METRICS:::	TS:478	NUM_POINTS:66	ALL_CLUSTERS:2	CLUSTERS_FILTERED:1	CLUSTERS_MERGED:1	
METRICS:::	TS:479	NUM_POINTS:66	ALL_CLUSTERS:0	CLUSTERS_FILTERED:0	CLUSTERS_MERGED:0	
METRICS:::	TS:480	NUM_POINTS:65	ALL_CLUSTERS:0	CLUSTERS_FILTERED:0	CLUSTERS_MERGED:0	
METRICS:::	TS:481	NUM_POINTS:65	ALL_CLUSTERS:0	CLUSTERS_FILTERED:0	CLUSTERS_MERGED:0	
METRICS:::	TS:482	NUM_POINTS:65	ALL_CLUSTERS:0	CLUSTERS_FILTERED:0	CLUSTERS_MERGED:0	
METRICS:::	TS:483	NUM_POINTS:65	ALL_CLUSTERS:2	CLUSTERS_FILTERED:1	CLUSTERS_MERGED:1	
METRICS:::	TS:484	NUM_POINTS:65	ALL_CLUSTERS:6	CLUSTERS_FILTERED:1	CLUSTERS_MERGED:2	
METRICS:::	TS:485	NUM_POINTS:65	ALL_CLUSTERS:5	CLUSTERS_FILTERED:1	CLUSTERS_MERGED:2	
METRICS:::	TS:486	NUM_POINTS:65	ALL_CLUSTERS:6	CLUSTERS_FILTERED:1	CLUSTERS_MERGED:2	
METRICS:::	TS:487	NUM_POINTS:65	ALL_CLUSTERS:5	CLUSTERS_FILTERED:1	CLUSTERS_MERGED:2	
METRICS:::	TS:488	NUM_POINTS:65	ALL_CLUSTERS:3	CLUSTERS_FILTERED:1	CLUSTERS_MERGED:1	
METRICS:::	TS:489	NUM_POINTS:64	ALL_CLUSTERS:0	CLUSTERS_FILTERED:0	CLUSTERS_MERGED:0	
METRICS:::	TS:490	NUM_POINTS:64	ALL_CLUSTERS:0	CLUSTERS_FILTERED:0	CLUSTERS_MERGED:0	
METRICS:::	TS:491	NUM_POINTS:64	ALL_CLUSTERS:0	CLUSTERS_FILTERED:0	CLUSTERS_MERGED:0	
METRICS:::	TS:492	NUM_POINTS:64	ALL_CLUSTERS:0	CLUSTERS_FILTERED:0	CLUSTERS_MERGED:0	
METRICS:::	TS:493	NUM_POINTS:64	ALL_CLUSTERS:6	CLUSTERS_FILTERED:2	CLUSTERS_MERGED:2	
METRICS:::	TS:494	NUM_POINTS:64	ALL_CLUSTERS:3	CLUSTERS_FILTERED:2	CLUSTERS_MERGED:2	
METRICS:::	TS:495	NUM_POINTS:64	ALL_CLUSTERS:5	CLUSTERS_FILTERED:2	CLUSTERS_MERGED:2	
METRICS:::	TS:496	NUM_POINTS:64	ALL_CLUSTERS:2	CLUSTERS_FILTERED:1	CLUSTERS_MERGED:1	
METRICS:::	TS:497	NUM_POINTS:64	ALL_CLUSTERS:2	CLUSTERS_FILTERED:1	CLUSTERS_MERGED:1	
METRICS:::	TS:498	NUM_POINTS:64	ALL_CLUSTERS:2	CLUSTERS_FILTERED:1	CLUSTERS_MERGED:1	
METRICS:::	TS:499	NUM_POINTS:64	ALL_CLUSTERS:0	CLUSTERS_FILTERED:0	CLUSTERS_MERGED:0	
METRICS:::	TS:500	NUM_POINTS:64	ALL_CLUSTERS:3	CLUSTERS_FILTERED:1	CLUSTERS_MERGED:1	
METRICS:::	TS:501	NUM_POINTS:64	ALL_CLUSTERS:2	CLUSTERS_FILTERED:1	CLUSTERS_MERGED:1	
METRICS:::	TS:502	NUM_POINTS:64	ALL_CLUSTERS:2	CLUSTERS_FILTERED:1	CLUSTERS_MERGED:1	
METRICS:::	TS:503	NUM_POINTS:64	ALL_CLUSTERS:0	CLUSTERS_FILTERED:0	CLUSTERS_MERGED:0	
METRICS:::	TS:504	NUM_POINTS:64	ALL_CLUSTERS:5	CLUSTERS_FILTERED:1	CLUSTERS_MERGED:1	
METRICS:::	TS:505	NUM_POINTS:64	ALL_CLUSTERS:6	CLUSTERS_FILTERED:2	CLUSTERS_MERGED:2	
METRICS:::	TS:506	NUM_POINTS:64	ALL_CLUSTERS:10	CLUSTERS_FILTERED:3	CLUSTERS_MERGED:5	
METRICS:::	TS:507	NUM_POINTS:64	ALL_CLUSTERS:8	CLUSTERS_FILTERED:2	CLUSTERS_MERGED:3	
METRICS:::	TS:508	NUM_POINTS:64	ALL_CLUSTERS:2	CLUSTERS_FILTERED:2	CLUSTERS_MERGED:2	
METRICS:::	TS:509	NUM_POINTS:64	ALL_CLUSTERS:2	CLUSTERS_FILTERED:1	CLUSTERS_MERGED:1	
METRICS:::	TS:510	NUM_POINTS:64	ALL_CLUSTERS:0	CLUSTERS_FILTERED:0	CLUSTERS_MERGED:0	
METRICS:::	TS:511	NUM_POINTS:64	ALL_CLUSTERS:0	CLUSTERS_FILTERED:0	CLUSTERS_MERGED:0	
METRICS:::	TS:512	NUM_POINTS:64	ALL_CLUSTERS:0	CLUSTERS_FILTERED:0	CLUSTERS_MERGED:0	
METRICS:::	TS:513	NUM_POINTS:64	ALL_CLUSTERS:2	CLUSTERS_FILTERED:1	CLUSTERS_MERGED:1	
METRICS:::	TS:514	NUM_POINTS:64	ALL_CLUSTERS:4	CLUSTERS_FILTERED:2	CLUSTERS_MERGED:2	
METRICS:::	TS:515	NUM_POINTS:64	ALL_CLUSTERS:1	CLUSTERS_FILTERED:1	CLUSTERS_MERGED:1	
METRICS:::	TS:516	NUM_POINTS:64	ALL_CLUSTERS:1	CLUSTERS_FILTERED:1	CLUSTERS_MERGED:1	
METRICS:::	TS:517	NUM_POINTS:64	ALL_CLUSTERS:0	CLUSTERS_FILTERED:0	CLUSTERS_MERGED:0	
METRICS:::	TS:518	NUM_POINTS:64	ALL_CLUSTERS:3	CLUSTERS_FILTERED:1	CLUSTERS_MERGED:1	
METRICS:::	TS:519	NUM_POINTS:64	ALL_CLUSTERS:0	CLUSTERS_FILTERED:0	CLUSTERS_MERGED:0	
METRICS:::	TS:520	NUM_POINTS:64	ALL_CLUSTERS:0	CLUSTERS_FILTERED:0	CLUSTERS_MERGED:0	
METRICS:::	TS:521	NUM_POINTS:64	ALL_CLUSTERS:0	CLUSTERS_FILTERED:0	CLUSTERS_MERGED:0	
METRICS:::	TS:522	NUM_POINTS:64	ALL_CLUSTERS:0	CLUSTERS_FILTERED:0	CLUSTERS_MERGED:0	
METRICS:::	TS:523	NUM_POINTS:64	ALL_CLUSTERS:1	CLUSTERS_FILTERED:1	CLUSTERS_MERGED:1	
METRICS:::	TS:524	NUM_POINTS:64	ALL_CLUSTERS:1	CLUSTERS_FILTERED:1	CLUSTERS_MERGED:1	
METRICS:::	TS:525	NUM_POINTS:64	ALL_CLUSTERS:2	CLUSTERS_FILTERED:1	CLUSTERS_MERGED:1	
METRICS:::	TS:526	NUM_POINTS:64	ALL_CLUSTERS:2	CLUSTERS_FILTERED:1	CLUSTERS_MERGED:1	
METRICS:::	TS:527	NUM_POINTS:64	ALL_CLUSTERS:5	CLUSTERS_FILTERED:1	CLUSTERS_MERGED:1	
METRICS:::	TS:528	NUM_POINTS:64	ALL_CLUSTERS:2	CLUSTERS_FILTERED:1	CLUSTERS_MERGED:1	
METRICS:::	TS:529	NUM_POINTS:64	ALL_CLUSTERS:4	CLUSTERS_FILTERED:1	CLUSTERS_MERGED:1	
METRICS:::	TS:530	NUM_POINTS:64	ALL_CLUSTERS:3	CLUSTERS_FILTERED:1	CLUSTERS_MERGED:1	
METRICS:::	TS:531	NUM_POINTS:64	ALL_CLUSTERS:3	CLUSTERS_FILTERED:1	CLUSTERS_MERGED:1	
METRICS:::	TS:532	NUM_POINTS:63	ALL_CLUSTERS:2	CLUSTERS_FILTERED:1	CLUSTERS_MERGED:1	
METRICS:::	TS:533	NUM_POINTS:63	ALL_CLUSTERS:0	CLUSTERS_FILTERED:0	CLUSTERS_MERGED:0	
METRICS:::	TS:534	NUM_POINTS:62	ALL_CLUSTERS:0	CLUSTERS_FILTERED:0	CLUSTERS_MERGED:0	
METRICS:::	TS:535	NUM_POINTS:62	ALL_CLUSTERS:0	CLUSTERS_FILTERED:0	CLUSTERS_MERGED:0	
METRICS:::	TS:536	NUM_POINTS:62	ALL_CLUSTERS:0	CLUSTERS_FILTERED:0	CLUSTERS_MERGED:0	
METRICS:::	TS:537	NUM_POINTS:62	ALL_CLUSTERS:2	CLUSTERS_FILTERED:1	CLUSTERS_MERGED:1	
METRICS:::	TS:538	NUM_POINTS:62	ALL_CLUSTERS:0	CLUSTERS_FILTERED:0	CLUSTERS_MERGED:0	
METRICS:::	TS:539	NUM_POINTS:62	ALL_CLUSTERS:0	CLUSTERS_FILTERED:0	CLUSTERS_MERGED:0	
METRICS:::	TS:540	NUM_POINTS:61	ALL_CLUSTERS:0	CLUSTERS_FILTERED:0	CLUSTERS_MERGED:0	
METRICS:::	TS:541	NUM_POINTS:61	ALL_CLUSTERS:0	CLUSTERS_FILTERED:0	CLUSTERS_MERGED:0	
METRICS:::	TS:542	NUM_POINTS:61	ALL_CLUSTERS:2	CLUSTERS_FILTERED:1	CLUSTERS_MERGED:1	
METRICS:::	TS:543	NUM_POINTS:61	ALL_CLUSTERS:2	CLUSTERS_FILTERED:1	CLUSTERS_MERGED:1	
METRICS:::	TS:544	NUM_POINTS:61	ALL_CLUSTERS:1	CLUSTERS_FILTERED:1	CLUSTERS_MERGED:1	
METRICS:::	TS:545	NUM_POINTS:61	ALL_CLUSTERS:2	CLUSTERS_FILTERED:1	CLUSTERS_MERGED:1	
METRICS:::	TS:546	NUM_POINTS:61	ALL_CLUSTERS:2	CLUSTERS_FILTERED:1	CLUSTERS_MERGED:1	
METRICS:::	TS:547	NUM_POINTS:61	ALL_CLUSTERS:1	CLUSTERS_FILTERED:1	CLUSTERS_MERGED:1	
METRICS:::	TS:548	NUM_POINTS:61	ALL_CLUSTERS:0	CLUSTERS_FILTERED:0	CLUSTERS_MERGED:0	
METRICS:::	TS:549	NUM_POINTS:61	ALL_CLUSTERS:0	CLUSTERS_FILTERED:0	CLUSTERS_MERGED:0	
METRICS:::	TS:550	NUM_POINTS:61	ALL_CLUSTERS:0	CLUSTERS_FILTERED:0	CLUSTERS_MERGED:0	
METRICS:::	TS:551	NUM_POINTS:61	ALL_CLUSTERS:0	CLUSTERS_FILTERED:0	CLUSTERS_MERGED:0	
METRICS:::	TS:552	NUM_POINTS:61	ALL_CLUSTERS:0	CLUSTERS_FILTERED:0	CLUSTERS_MERGED:0	
METRICS:::	TS:553	NUM_POINTS:61	ALL_CLUSTERS:0	CLUSTERS_FILTERED:0	CLUSTERS_MERGED:0	
METRICS:::	TS:554	NUM_POINTS:61	ALL_CLUSTERS:0	CLUSTERS_FILTERED:0	CLUSTERS_MERGED:0	
METRICS:::	TS:555	NUM_POINTS:61	ALL_CLUSTERS:3	CLUSTERS_FILTERED:1	CLUSTERS_MERGED:1	
METRICS:::	TS:556	NUM_POINTS:61	ALL_CLUSTERS:5	CLUSTERS_FILTERED:2	CLUSTERS_MERGED:2	
METRICS:::	TS:557	NUM_POINTS:61	ALL_CLUSTERS:3	CLUSTERS_FILTERED:1	CLUSTERS_MERGED:1	
METRICS:::	TS:558	NUM_POINTS:61	ALL_CLUSTERS:0	CLUSTERS_FILTERED:0	CLUSTERS_MERGED:0	
METRICS:::	TS:559	NUM_POINTS:61	ALL_CLUSTERS:5	CLUSTERS_FILTERED:2	CLUSTERS_MERGED:2	
METRICS:::	TS:560	NUM_POINTS:61	ALL_CLUSTERS:9	CLUSTERS_FILTERED:2	CLUSTERS_MERGED:3	
METRICS:::	TS:561	NUM_POINTS:61	ALL_CLUSTERS:9	CLUSTERS_FILTERED:3	CLUSTERS_MERGED:4	
METRICS:::	TS:562	NUM_POINTS:61	ALL_CLUSTERS:8	CLUSTERS_FILTERED:1	CLUSTERS_MERGED:3	
METRICS:::	TS:563	NUM_POINTS:61	ALL_CLUSTERS:3	CLUSTERS_FILTERED:1	CLUSTERS_MERGED:1	
METRICS:::	TS:564	NUM_POINTS:61	ALL_CLUSTERS:2	CLUSTERS_FILTERED:1	CLUSTERS_MERGED:1	
METRICS:::	TS:565	NUM_POINTS:60	ALL_CLUSTERS:0	CLUSTERS_FILTERED:0	CLUSTERS_MERGED:0	
METRICS:::	TS:566	NUM_POINTS:59	ALL_CLUSTERS:0	CLUSTERS_FILTERED:0	CLUSTERS_MERGED:0	
METRICS:::	TS:567	NUM_POINTS:59	ALL_CLUSTERS:0	CLUSTERS_FILTERED:0	CLUSTERS_MERGED:0	
METRICS:::	TS:568	NUM_POINTS:59	ALL_CLUSTERS:0	CLUSTERS_FILTERED:0	CLUSTERS_MERGED:0	
METRICS:::	TS:569	NUM_POINTS:59	ALL_CLUSTERS:0	CLUSTERS_FILTERED:0	CLUSTERS_MERGED:0	
METRICS:::	TS:570	NUM_POINTS:59	ALL_CLUSTERS:0	CLUSTERS_FILTERED:0	CLUSTERS_MERGED:0	
METRICS:::	TS:571	NUM_POINTS:59	ALL_CLUSTERS:0	CLUSTERS_FILTERED:0	CLUSTERS_MERGED:0	
METRICS:::	TS:572	NUM_POINTS:59	ALL_CLUSTERS:0	CLUSTERS_FILTERED:0	CLUSTERS_MERGED:0	
METRICS:::	TS:573	NUM_POINTS:58	ALL_CLUSTERS:0	CLUSTERS_FILTERED:0	CLUSTERS_MERGED:0	
METRICS:::	TS:574	NUM_POINTS:58	ALL_CLUSTERS:0	CLUSTERS_FILTERED:0	CLUSTERS_MERGED:0	
METRICS:::	TS:575	NUM_POINTS:58	ALL_CLUSTERS:0	CLUSTERS_FILTERED:0	CLUSTERS_MERGED:0	
METRICS:::	TS:576	NUM_POINTS:58	ALL_CLUSTERS:0	CLUSTERS_FILTERED:0	CLUSTERS_MERGED:0	
METRICS:::	TS:577	NUM_POINTS:58	ALL_CLUSTERS:0	CLUSTERS_FILTERED:0	CLUSTERS_MERGED:0	
METRICS:::	TS:578	NUM_POINTS:58	ALL_CLUSTERS:0	CLUSTERS_FILTERED:0	CLUSTERS_MERGED:0	
METRICS:::	TS:579	NUM_POINTS:58	ALL_CLUSTERS:0	CLUSTERS_FILTERED:0	CLUSTERS_MERGED:0	
METRICS:::	TS:580	NUM_POINTS:58	ALL_CLUSTERS:0	CLUSTERS_FILTERED:0	CLUSTERS_MERGED:0	
METRICS:::	TS:581	NUM_POINTS:58	ALL_CLUSTERS:0	CLUSTERS_FILTERED:0	CLUSTERS_MERGED:0	
METRICS:::	TS:582	NUM_POINTS:58	ALL_CLUSTERS:0	CLUSTERS_FILTERED:0	CLUSTERS_MERGED:0	
METRICS:::	TS:583	NUM_POINTS:58	ALL_CLUSTERS:0	CLUSTERS_FILTERED:0	CLUSTERS_MERGED:0	
METRICS:::	TS:584	NUM_POINTS:58	ALL_CLUSTERS:0	CLUSTERS_FILTERED:0	CLUSTERS_MERGED:0	
METRICS:::	TS:585	NUM_POINTS:58	ALL_CLUSTERS:0	CLUSTERS_FILTERED:0	CLUSTERS_MERGED:0	
METRICS:::	TS:586	NUM_POINTS:58	ALL_CLUSTERS:0	CLUSTERS_FILTERED:0	CLUSTERS_MERGED:0	
METRICS:::	TS:587	NUM_POINTS:58	ALL_CLUSTERS:0	CLUSTERS_FILTERED:0	CLUSTERS_MERGED:0	
METRICS:::	TS:588	NUM_POINTS:58	ALL_CLUSTERS:0	CLUSTERS_FILTERED:0	CLUSTERS_MERGED:0	
METRICS:::	TS:589	NUM_POINTS:58	ALL_CLUSTERS:0	CLUSTERS_FILTERED:0	CLUSTERS_MERGED:0	
METRICS:::	TS:590	NUM_POINTS:57	ALL_CLUSTERS:0	CLUSTERS_FILTERED:0	CLUSTERS_MERGED:0	
METRICS:::	TS:591	NUM_POINTS:57	ALL_CLUSTERS:0	CLUSTERS_FILTERED:0	CLUSTERS_MERGED:0	
METRICS:::	TS:592	NUM_POINTS:57	ALL_CLUSTERS:0	CLUSTERS_FILTERED:0	CLUSTERS_MERGED:0	
METRICS:::	TS:593	NUM_POINTS:57	ALL_CLUSTERS:0	CLUSTERS_FILTERED:0	CLUSTERS_MERGED:0	
METRICS:::	TS:594	NUM_POINTS:57	ALL_CLUSTERS:0	CLUSTERS_FILTERED:0	CLUSTERS_MERGED:0	
METRICS:::	TS:595	NUM_POINTS:57	ALL_CLUSTERS:0	CLUSTERS_FILTERED:0	CLUSTERS_MERGED:0	
METRICS:::	TS:596	NUM_POINTS:57	ALL_CLUSTERS:0	CLUSTERS_FILTERED:0	CLUSTERS_MERGED:0	
METRICS:::	TS:597	NUM_POINTS:57	ALL_CLUSTERS:0	CLUSTERS_FILTERED:0	CLUSTERS_MERGED:0	
METRICS:::	TS:598	NUM_POINTS:57	ALL_CLUSTERS:0	CLUSTERS_FILTERED:0	CLUSTERS_MERGED:0	
METRICS:::	TS:599	NUM_POINTS:57	ALL_CLUSTERS:0	CLUSTERS_FILTERED:0	CLUSTERS_MERGED:0	
METRICS:::	TS:600	NUM_POINTS:57	ALL_CLUSTERS:0	CLUSTERS_FILTERED:0	CLUSTERS_MERGED:0	
METRICS:::	TS:601	NUM_POINTS:57	ALL_CLUSTERS:0	CLUSTERS_FILTERED:0	CLUSTERS_MERGED:0	
METRICS:::	TS:602	NUM_POINTS:57	ALL_CLUSTERS:0	CLUSTERS_FILTERED:0	CLUSTERS_MERGED:0	
METRICS:::	TS:603	NUM_POINTS:57	ALL_CLUSTERS:0	CLUSTERS_FILTERED:0	CLUSTERS_MERGED:0	
METRICS:::	TS:604	NUM_POINTS:57	ALL_CLUSTERS:0	CLUSTERS_FILTERED:0	CLUSTERS_MERGED:0	
METRICS:::	TS:605	NUM_POINTS:57	ALL_CLUSTERS:0	CLUSTERS_FILTERED:0	CLUSTERS_MERGED:0	
METRICS:::	TS:606	NUM_POINTS:57	ALL_CLUSTERS:0	CLUSTERS_FILTERED:0	CLUSTERS_MERGED:0	
METRICS:::	TS:607	NUM_POINTS:57	ALL_CLUSTERS:0	CLUSTERS_FILTERED:0	CLUSTERS_MERGED:0	
METRICS:::	TS:608	NUM_POINTS:57	ALL_CLUSTERS:0	CLUSTERS_FILTERED:0	CLUSTERS_MERGED:0	
METRICS:::	TS:609	NUM_POINTS:56	ALL_CLUSTERS:0	CLUSTERS_FILTERED:0	CLUSTERS_MERGED:0	
METRICS:::	TS:610	NUM_POINTS:56	ALL_CLUSTERS:0	CLUSTERS_FILTERED:0	CLUSTERS_MERGED:0	
METRICS:::	TS:611	NUM_POINTS:56	ALL_CLUSTERS:0	CLUSTERS_FILTERED:0	CLUSTERS_MERGED:0	
METRICS:::	TS:612	NUM_POINTS:56	ALL_CLUSTERS:0	CLUSTERS_FILTERED:0	CLUSTERS_MERGED:0	
METRICS:::	TS:613	NUM_POINTS:56	ALL_CLUSTERS:0	CLUSTERS_FILTERED:0	CLUSTERS_MERGED:0	
METRICS:::	TS:614	NUM_POINTS:56	ALL_CLUSTERS:0	CLUSTERS_FILTERED:0	CLUSTERS_MERGED:0	
METRICS:::	TS:615	NUM_POINTS:56	ALL_CLUSTERS:0	CLUSTERS_FILTERED:0	CLUSTERS_MERGED:0	
METRICS:::	TS:616	NUM_POINTS:56	ALL_CLUSTERS:0	CLUSTERS_FILTERED:0	CLUSTERS_MERGED:0	
METRICS:::	TS:617	NUM_POINTS:56	ALL_CLUSTERS:0	CLUSTERS_FILTERED:0	CLUSTERS_MERGED:0	
METRICS:::	TS:618	NUM_POINTS:56	ALL_CLUSTERS:0	CLUSTERS_FILTERED:0	CLUSTERS_MERGED:0	
METRICS:::	TS:619	NUM_POINTS:56	ALL_CLUSTERS:0	CLUSTERS_FILTERED:0	CLUSTERS_MERGED:0	
METRICS:::	TS:620	NUM_POINTS:56	ALL_CLUSTERS:0	CLUSTERS_FILTERED:0	CLUSTERS_MERGED:0	
METRICS:::	TS:621	NUM_POINTS:56	ALL_CLUSTERS:0	CLUSTERS_FILTERED:0	CLUSTERS_MERGED:0	
METRICS:::	TS:622	NUM_POINTS:55	ALL_CLUSTERS:0	CLUSTERS_FILTERED:0	CLUSTERS_MERGED:0	
METRICS:::	TS:623	NUM_POINTS:55	ALL_CLUSTERS:0	CLUSTERS_FILTERED:0	CLUSTERS_MERGED:0	
METRICS:::	TS:624	NUM_POINTS:54	ALL_CLUSTERS:4	CLUSTERS_FILTERED:1	CLUSTERS_MERGED:1	
METRICS:::	TS:625	NUM_POINTS:54	ALL_CLUSTERS:0	CLUSTERS_FILTERED:0	CLUSTERS_MERGED:0	
METRICS:::	TS:626	NUM_POINTS:54	ALL_CLUSTERS:0	CLUSTERS_FILTERED:0	CLUSTERS_MERGED:0	
METRICS:::	TS:627	NUM_POINTS:54	ALL_CLUSTERS:0	CLUSTERS_FILTERED:0	CLUSTERS_MERGED:0	
METRICS:::	TS:628	NUM_POINTS:54	ALL_CLUSTERS:0	CLUSTERS_FILTERED:0	CLUSTERS_MERGED:0	
METRICS:::	TS:629	NUM_POINTS:54	ALL_CLUSTERS:0	CLUSTERS_FILTERED:0	CLUSTERS_MERGED:0	
METRICS:::	TS:630	NUM_POINTS:54	ALL_CLUSTERS:0	CLUSTERS_FILTERED:0	CLUSTERS_MERGED:0	
METRICS:::	TS:631	NUM_POINTS:53	ALL_CLUSTERS:0	CLUSTERS_FILTERED:0	CLUSTERS_MERGED:0	
METRICS:::	TS:632	NUM_POINTS:53	ALL_CLUSTERS:0	CLUSTERS_FILTERED:0	CLUSTERS_MERGED:0	
METRICS:::	TS:633	NUM_POINTS:53	ALL_CLUSTERS:0	CLUSTERS_FILTERED:0	CLUSTERS_MERGED:0	
METRICS:::	TS:634	NUM_POINTS:53	ALL_CLUSTERS:0	CLUSTERS_FILTERED:0	CLUSTERS_MERGED:0	
METRICS:::	TS:635	NUM_POINTS:53	ALL_CLUSTERS:0	CLUSTERS_FILTERED:0	CLUSTERS_MERGED:0	
METRICS:::	TS:636	NUM_POINTS:53	ALL_CLUSTERS:0	CLUSTERS_FILTERED:0	CLUSTERS_MERGED:0	
METRICS:::	TS:637	NUM_POINTS:53	ALL_CLUSTERS:0	CLUSTERS_FILTERED:0	CLUSTERS_MERGED:0	
METRICS:::	TS:638	NUM_POINTS:53	ALL_CLUSTERS:0	CLUSTERS_FILTERED:0	CLUSTERS_MERGED:0	
METRICS:::	TS:639	NUM_POINTS:53	ALL_CLUSTERS:0	CLUSTERS_FILTERED:0	CLUSTERS_MERGED:0	
METRICS:::	TS:640	NUM_POINTS:53	ALL_CLUSTERS:0	CLUSTERS_FILTERED:0	CLUSTERS_MERGED:0	
METRICS:::	TS:641	NUM_POINTS:53	ALL_CLUSTERS:0	CLUSTERS_FILTERED:0	CLUSTERS_MERGED:0	
METRICS:::	TS:642	NUM_POINTS:53	ALL_CLUSTERS:0	CLUSTERS_FILTERED:0	CLUSTERS_MERGED:0	
METRICS:::	TS:643	NUM_POINTS:53	ALL_CLUSTERS:0	CLUSTERS_FILTERED:0	CLUSTERS_MERGED:0	
METRICS:::	TS:644	NUM_POINTS:53	ALL_CLUSTERS:0	CLUSTERS_FILTERED:0	CLUSTERS_MERGED:0	
METRICS:::	TS:645	NUM_POINTS:53	ALL_CLUSTERS:0	CLUSTERS_FILTERED:0	CLUSTERS_MERGED:0	
METRICS:::	TS:646	NUM_POINTS:53	ALL_CLUSTERS:0	CLUSTERS_FILTERED:0	CLUSTERS_MERGED:0	
METRICS:::	TS:647	NUM_POINTS:53	ALL_CLUSTERS:0	CLUSTERS_FILTERED:0	CLUSTERS_MERGED:0	
METRICS:::	TS:648	NUM_POINTS:53	ALL_CLUSTERS:0	CLUSTERS_FILTERED:0	CLUSTERS_MERGED:0	
METRICS:::	TS:649	NUM_POINTS:53	ALL_CLUSTERS:0	CLUSTERS_FILTERED:0	CLUSTERS_MERGED:0	
METRICS:::	TS:650	NUM_POINTS:53	ALL_CLUSTERS:0	CLUSTERS_FILTERED:0	CLUSTERS_MERGED:0	
METRICS:::	TS:651	NUM_POINTS:53	ALL_CLUSTERS:0	CLUSTERS_FILTERED:0	CLUSTERS_MERGED:0	
METRICS:::	TS:652	NUM_POINTS:53	ALL_CLUSTERS:4	CLUSTERS_FILTERED:2	CLUSTERS_MERGED:2	
METRICS:::	TS:653	NUM_POINTS:53	ALL_CLUSTERS:0	CLUSTERS_FILTERED:0	CLUSTERS_MERGED:0	
METRICS:::	TS:654	NUM_POINTS:53	ALL_CLUSTERS:0	CLUSTERS_FILTERED:0	CLUSTERS_MERGED:0	
METRICS:::	TS:655	NUM_POINTS:53	ALL_CLUSTERS:0	CLUSTERS_FILTERED:0	CLUSTERS_MERGED:0	
METRICS:::	TS:656	NUM_POINTS:53	ALL_CLUSTERS:0	CLUSTERS_FILTERED:0	CLUSTERS_MERGED:0	
METRICS:::	TS:657	NUM_POINTS:52	ALL_CLUSTERS:0	CLUSTERS_FILTERED:0	CLUSTERS_MERGED:0	
METRICS:::	TS:658	NUM_POINTS:52	ALL_CLUSTERS:0	CLUSTERS_FILTERED:0	CLUSTERS_MERGED:0	
METRICS:::	TS:659	NUM_POINTS:52	ALL_CLUSTERS:0	CLUSTERS_FILTERED:0	CLUSTERS_MERGED:0	
METRICS:::	TS:660	NUM_POINTS:52	ALL_CLUSTERS:0	CLUSTERS_FILTERED:0	CLUSTERS_MERGED:0	
METRICS:::	TS:661	NUM_POINTS:51	ALL_CLUSTERS:0	CLUSTERS_FILTERED:0	CLUSTERS_MERGED:0	
METRICS:::	TS:662	NUM_POINTS:51	ALL_CLUSTERS:0	CLUSTERS_FILTERED:0	CLUSTERS_MERGED:0	
METRICS:::	TS:663	NUM_POINTS:51	ALL_CLUSTERS:0	CLUSTERS_FILTERED:0	CLUSTERS_MERGED:0	
METRICS:::	TS:664	NUM_POINTS:51	ALL_CLUSTERS:0	CLUSTERS_FILTERED:0	CLUSTERS_MERGED:0	
METRICS:::	TS:665	NUM_POINTS:50	ALL_CLUSTERS:0	CLUSTERS_FILTERED:0	CLUSTERS_MERGED:0	
METRICS:::	TS:666	NUM_POINTS:50	ALL_CLUSTERS:0	CLUSTERS_FILTERED:0	CLUSTERS_MERGED:0	
METRICS:::	TS:667	NUM_POINTS:50	ALL_CLUSTERS:0	CLUSTERS_FILTERED:0	CLUSTERS_MERGED:0	
METRICS:::	TS:668	NUM_POINTS:50	ALL_CLUSTERS:0	CLUSTERS_FILTERED:0	CLUSTERS_MERGED:0	
METRICS:::	TS:669	NUM_POINTS:50	ALL_CLUSTERS:0	CLUSTERS_FILTERED:0	CLUSTERS_MERGED:0	
METRICS:::	TS:670	NUM_POINTS:50	ALL_CLUSTERS:0	CLUSTERS_FILTERED:0	CLUSTERS_MERGED:0	
METRICS:::	TS:671	NUM_POINTS:50	ALL_CLUSTERS:0	CLUSTERS_FILTERED:0	CLUSTERS_MERGED:0	
METRICS:::	TS:672	NUM_POINTS:50	ALL_CLUSTERS:0	CLUSTERS_FILTERED:0	CLUSTERS_MERGED:0	
METRICS:::	TS:673	NUM_POINTS:50	ALL_CLUSTERS:0	CLUSTERS_FILTERED:0	CLUSTERS_MERGED:0	
METRICS:::	TS:674	NUM_POINTS:49	ALL_CLUSTERS:0	CLUSTERS_FILTERED:0	CLUSTERS_MERGED:0	
METRICS:::	TS:675	NUM_POINTS:49	ALL_CLUSTERS:0	CLUSTERS_FILTERED:0	CLUSTERS_MERGED:0	
METRICS:::	TS:676	NUM_POINTS:49	ALL_CLUSTERS:0	CLUSTERS_FILTERED:0	CLUSTERS_MERGED:0	
METRICS:::	TS:677	NUM_POINTS:49	ALL_CLUSTERS:0	CLUSTERS_FILTERED:0	CLUSTERS_MERGED:0	
METRICS:::	TS:678	NUM_POINTS:49	ALL_CLUSTERS:0	CLUSTERS_FILTERED:0	CLUSTERS_MERGED:0	
METRICS:::	TS:679	NUM_POINTS:49	ALL_CLUSTERS:0	CLUSTERS_FILTERED:0	CLUSTERS_MERGED:0	
METRICS:::	TS:680	NUM_POINTS:49	ALL_CLUSTERS:0	CLUSTERS_FILTERED:0	CLUSTERS_MERGED:0	
METRICS:::	TS:681	NUM_POINTS:49	ALL_CLUSTERS:0	CLUSTERS_FILTERED:0	CLUSTERS_MERGED:0	
METRICS:::	TS:682	NUM_POINTS:49	ALL_CLUSTERS:0	CLUSTERS_FILTERED:0	CLUSTERS_MERGED:0	
METRICS:::	TS:683	NUM_POINTS:48	ALL_CLUSTERS:0	CLUSTERS_FILTERED:0	CLUSTERS_MERGED:0	
METRICS:::	TS:684	NUM_POINTS:48	ALL_CLUSTERS:0	CLUSTERS_FILTERED:0	CLUSTERS_MERGED:0	
METRICS:::	TS:685	NUM_POINTS:48	ALL_CLUSTERS:0	CLUSTERS_FILTERED:0	CLUSTERS_MERGED:0	
METRICS:::	TS:686	NUM_POINTS:48	ALL_CLUSTERS:0	CLUSTERS_FILTERED:0	CLUSTERS_MERGED:0	
METRICS:::	TS:687	NUM_POINTS:48	ALL_CLUSTERS:0	CLUSTERS_FILTERED:0	CLUSTERS_MERGED:0	
METRICS:::	TS:688	NUM_POINTS:48	ALL_CLUSTERS:0	CLUSTERS_FILTERED:0	CLUSTERS_MERGED:0	
METRICS:::	TS:689	NUM_POINTS:48	ALL_CLUSTERS:0	CLUSTERS_FILTERED:0	CLUSTERS_MERGED:0	
METRICS:::	TS:690	NUM_POINTS:48	ALL_CLUSTERS:0	CLUSTERS_FILTERED:0	CLUSTERS_MERGED:0	
METRICS:::	TS:691	NUM_POINTS:47	ALL_CLUSTERS:0	CLUSTERS_FILTERED:0	CLUSTERS_MERGED:0	
METRICS:::	TS:692	NUM_POINTS:47	ALL_CLUSTERS:0	CLUSTERS_FILTERED:0	CLUSTERS_MERGED:0	
METRICS:::	TS:693	NUM_POINTS:47	ALL_CLUSTERS:0	CLUSTERS_FILTERED:0	CLUSTERS_MERGED:0	
METRICS:::	TS:694	NUM_POINTS:47	ALL_CLUSTERS:0	CLUSTERS_FILTERED:0	CLUSTERS_MERGED:0	
METRICS:::	TS:695	NUM_POINTS:46	ALL_CLUSTERS:0	CLUSTERS_FILTERED:0	CLUSTERS_MERGED:0	
METRICS:::	TS:696	NUM_POINTS:46	ALL_CLUSTERS:0	CLUSTERS_FILTERED:0	CLUSTERS_MERGED:0	
METRICS:::	TS:697	NUM_POINTS:46	ALL_CLUSTERS:0	CLUSTERS_FILTERED:0	CLUSTERS_MERGED:0	
METRICS:::	TS:698	NUM_POINTS:46	ALL_CLUSTERS:0	CLUSTERS_FILTERED:0	CLUSTERS_MERGED:0	
METRICS:::	TS:699	NUM_POINTS:46	ALL_CLUSTERS:0	CLUSTERS_FILTERED:0	CLUSTERS_MERGED:0	
METRICS:::	TS:700	NUM_POINTS:46	ALL_CLUSTERS:0	CLUSTERS_FILTERED:0	CLUSTERS_MERGED:0	
METRICS:::	TS:701	NUM_POINTS:46	ALL_CLUSTERS:0	CLUSTERS_FILTERED:0	CLUSTERS_MERGED:0	
METRICS:::	TS:702	NUM_POINTS:46	ALL_CLUSTERS:0	CLUSTERS_FILTERED:0	CLUSTERS_MERGED:0	
METRICS:::	TS:703	NUM_POINTS:45	ALL_CLUSTERS:0	CLUSTERS_FILTERED:0	CLUSTERS_MERGED:0	
METRICS:::	TS:704	NUM_POINTS:45	ALL_CLUSTERS:0	CLUSTERS_FILTERED:0	CLUSTERS_MERGED:0	
METRICS:::	TS:705	NUM_POINTS:45	ALL_CLUSTERS:0	CLUSTERS_FILTERED:0	CLUSTERS_MERGED:0	
METRICS:::	TS:706	NUM_POINTS:45	ALL_CLUSTERS:0	CLUSTERS_FILTERED:0	CLUSTERS_MERGED:0	
METRICS:::	TS:707	NUM_POINTS:45	ALL_CLUSTERS:0	CLUSTERS_FILTERED:0	CLUSTERS_MERGED:0	
METRICS:::	TS:708	NUM_POINTS:45	ALL_CLUSTERS:0	CLUSTERS_FILTERED:0	CLUSTERS_MERGED:0	
METRICS:::	TS:709	NUM_POINTS:45	ALL_CLUSTERS:0	CLUSTERS_FILTERED:0	CLUSTERS_MERGED:0	
METRICS:::	TS:710	NUM_POINTS:45	ALL_CLUSTERS:0	CLUSTERS_FILTERED:0	CLUSTERS_MERGED:0	
METRICS:::	TS:711	NUM_POINTS:45	ALL_CLUSTERS:3	CLUSTERS_FILTERED:1	CLUSTERS_MERGED:1	
METRICS:::	TS:712	NUM_POINTS:45	ALL_CLUSTERS:2	CLUSTERS_FILTERED:1	CLUSTERS_MERGED:1	
METRICS:::	TS:713	NUM_POINTS:45	ALL_CLUSTERS:0	CLUSTERS_FILTERED:0	CLUSTERS_MERGED:0	
METRICS:::	TS:714	NUM_POINTS:45	ALL_CLUSTERS:0	CLUSTERS_FILTERED:0	CLUSTERS_MERGED:0	
METRICS:::	TS:715	NUM_POINTS:45	ALL_CLUSTERS:0	CLUSTERS_FILTERED:0	CLUSTERS_MERGED:0	
METRICS:::	TS:716	NUM_POINTS:45	ALL_CLUSTERS:0	CLUSTERS_FILTERED:0	CLUSTERS_MERGED:0	
METRICS:::	TS:717	NUM_POINTS:44	ALL_CLUSTERS:0	CLUSTERS_FILTERED:0	CLUSTERS_MERGED:0	
METRICS:::	TS:718	NUM_POINTS:43	ALL_CLUSTERS:0	CLUSTERS_FILTERED:0	CLUSTERS_MERGED:0	
METRICS:::	TS:719	NUM_POINTS:43	ALL_CLUSTERS:0	CLUSTERS_FILTERED:0	CLUSTERS_MERGED:0	
METRICS:::	TS:720	NUM_POINTS:43	ALL_CLUSTERS:0	CLUSTERS_FILTERED:0	CLUSTERS_MERGED:0	
METRICS:::	TS:721	NUM_POINTS:43	ALL_CLUSTERS:0	CLUSTERS_FILTERED:0	CLUSTERS_MERGED:0	
METRICS:::	TS:722	NUM_POINTS:43	ALL_CLUSTERS:0	CLUSTERS_FILTERED:0	CLUSTERS_MERGED:0	
METRICS:::	TS:723	NUM_POINTS:43	ALL_CLUSTERS:0	CLUSTERS_FILTERED:0	CLUSTERS_MERGED:0	
METRICS:::	TS:724	NUM_POINTS:43	ALL_CLUSTERS:0	CLUSTERS_FILTERED:0	CLUSTERS_MERGED:0	
METRICS:::	TS:725	NUM_POINTS:43	ALL_CLUSTERS:0	CLUSTERS_FILTERED:0	CLUSTERS_MERGED:0	
METRICS:::	TS:726	NUM_POINTS:42	ALL_CLUSTERS:0	CLUSTERS_FILTERED:0	CLUSTERS_MERGED:0	
METRICS:::	TS:727	NUM_POINTS:42	ALL_CLUSTERS:0	CLUSTERS_FILTERED:0	CLUSTERS_MERGED:0	
METRICS:::	TS:728	NUM_POINTS:42	ALL_CLUSTERS:0	CLUSTERS_FILTERED:0	CLUSTERS_MERGED:0	
METRICS:::	TS:729	NUM_POINTS:42	ALL_CLUSTERS:0	CLUSTERS_FILTERED:0	CLUSTERS_MERGED:0	
METRICS:::	TS:730	NUM_POINTS:42	ALL_CLUSTERS:0	CLUSTERS_FILTERED:0	CLUSTERS_MERGED:0	
METRICS:::	TS:731	NUM_POINTS:42	ALL_CLUSTERS:0	CLUSTERS_FILTERED:0	CLUSTERS_MERGED:0	
METRICS:::	TS:732	NUM_POINTS:41	ALL_CLUSTERS:0	CLUSTERS_FILTERED:0	CLUSTERS_MERGED:0	
METRICS:::	TS:733	NUM_POINTS:41	ALL_CLUSTERS:0	CLUSTERS_FILTERED:0	CLUSTERS_MERGED:0	
METRICS:::	TS:734	NUM_POINTS:39	ALL_CLUSTERS:0	CLUSTERS_FILTERED:0	CLUSTERS_MERGED:0	
METRICS:::	TS:735	NUM_POINTS:39	ALL_CLUSTERS:0	CLUSTERS_FILTERED:0	CLUSTERS_MERGED:0	
METRICS:::	TS:736	NUM_POINTS:39	ALL_CLUSTERS:0	CLUSTERS_FILTERED:0	CLUSTERS_MERGED:0	
METRICS:::	TS:737	NUM_POINTS:39	ALL_CLUSTERS:0	CLUSTERS_FILTERED:0	CLUSTERS_MERGED:0	
METRICS:::	TS:738	NUM_POINTS:38	ALL_CLUSTERS:0	CLUSTERS_FILTERED:0	CLUSTERS_MERGED:0	
METRICS:::	TS:739	NUM_POINTS:38	ALL_CLUSTERS:0	CLUSTERS_FILTERED:0	CLUSTERS_MERGED:0	
METRICS:::	TS:740	NUM_POINTS:38	ALL_CLUSTERS:0	CLUSTERS_FILTERED:0	CLUSTERS_MERGED:0	
METRICS:::	TS:741	NUM_POINTS:38	ALL_CLUSTERS:0	CLUSTERS_FILTERED:0	CLUSTERS_MERGED:0	
METRICS:::	TS:742	NUM_POINTS:38	ALL_CLUSTERS:0	CLUSTERS_FILTERED:0	CLUSTERS_MERGED:0	
METRICS:::	TS:743	NUM_POINTS:38	ALL_CLUSTERS:0	CLUSTERS_FILTERED:0	CLUSTERS_MERGED:0	
METRICS:::	TS:744	NUM_POINTS:38	ALL_CLUSTERS:0	CLUSTERS_FILTERED:0	CLUSTERS_MERGED:0	
METRICS:::	TS:745	NUM_POINTS:38	ALL_CLUSTERS:0	CLUSTERS_FILTERED:0	CLUSTERS_MERGED:0	
METRICS:::	TS:746	NUM_POINTS:38	ALL_CLUSTERS:0	CLUSTERS_FILTERED:0	CLUSTERS_MERGED:0	
METRICS:::	TS:747	NUM_POINTS:38	ALL_CLUSTERS:0	CLUSTERS_FILTERED:0	CLUSTERS_MERGED:0	
METRICS:::	TS:748	NUM_POINTS:38	ALL_CLUSTERS:0	CLUSTERS_FILTERED:0	CLUSTERS_MERGED:0	
METRICS:::	TS:749	NUM_POINTS:38	ALL_CLUSTERS:0	CLUSTERS_FILTERED:0	CLUSTERS_MERGED:0	
METRICS:::	TS:750	NUM_POINTS:38	ALL_CLUSTERS:0	CLUSTERS_FILTERED:0	CLUSTERS_MERGED:0	
METRICS:::	TS:751	NUM_POINTS:38	ALL_CLUSTERS:0	CLUSTERS_FILTERED:0	CLUSTERS_MERGED:0	
METRICS:::	TS:752	NUM_POINTS:37	ALL_CLUSTERS:0	CLUSTERS_FILTERED:0	CLUSTERS_MERGED:0	
METRICS:::	TS:753	NUM_POINTS:36	ALL_CLUSTERS:0	CLUSTERS_FILTERED:0	CLUSTERS_MERGED:0	
METRICS:::	TS:754	NUM_POINTS:36	ALL_CLUSTERS:0	CLUSTERS_FILTERED:0	CLUSTERS_MERGED:0	
METRICS:::	TS:755	NUM_POINTS:36	ALL_CLUSTERS:0	CLUSTERS_FILTERED:0	CLUSTERS_MERGED:0	
METRICS:::	TS:756	NUM_POINTS:34	ALL_CLUSTERS:0	CLUSTERS_FILTERED:0	CLUSTERS_MERGED:0	
METRICS:::	TS:757	NUM_POINTS:33	ALL_CLUSTERS:0	CLUSTERS_FILTERED:0	CLUSTERS_MERGED:0	
METRICS:::	TS:758	NUM_POINTS:33	ALL_CLUSTERS:0	CLUSTERS_FILTERED:0	CLUSTERS_MERGED:0	
METRICS:::	TS:759	NUM_POINTS:32	ALL_CLUSTERS:0	CLUSTERS_FILTERED:0	CLUSTERS_MERGED:0	
METRICS:::	TS:760	NUM_POINTS:32	ALL_CLUSTERS:0	CLUSTERS_FILTERED:0	CLUSTERS_MERGED:0	
METRICS:::	TS:761	NUM_POINTS:32	ALL_CLUSTERS:0	CLUSTERS_FILTERED:0	CLUSTERS_MERGED:0	
METRICS:::	TS:762	NUM_POINTS:32	ALL_CLUSTERS:0	CLUSTERS_FILTERED:0	CLUSTERS_MERGED:0	
METRICS:::	TS:763	NUM_POINTS:32	ALL_CLUSTERS:0	CLUSTERS_FILTERED:0	CLUSTERS_MERGED:0	
METRICS:::	TS:764	NUM_POINTS:31	ALL_CLUSTERS:0	CLUSTERS_FILTERED:0	CLUSTERS_MERGED:0	
METRICS:::	TS:765	NUM_POINTS:31	ALL_CLUSTERS:0	CLUSTERS_FILTERED:0	CLUSTERS_MERGED:0	
METRICS:::	TS:766	NUM_POINTS:31	ALL_CLUSTERS:0	CLUSTERS_FILTERED:0	CLUSTERS_MERGED:0	
METRICS:::	TS:767	NUM_POINTS:31	ALL_CLUSTERS:0	CLUSTERS_FILTERED:0	CLUSTERS_MERGED:0	
METRICS:::	TS:768	NUM_POINTS:31	ALL_CLUSTERS:0	CLUSTERS_FILTERED:0	CLUSTERS_MERGED:0	
METRICS:::	TS:769	NUM_POINTS:31	ALL_CLUSTERS:0	CLUSTERS_FILTERED:0	CLUSTERS_MERGED:0	
METRICS:::	TS:770	NUM_POINTS:30	ALL_CLUSTERS:0	CLUSTERS_FILTERED:0	CLUSTERS_MERGED:0	
METRICS:::	TS:771	NUM_POINTS:30	ALL_CLUSTERS:0	CLUSTERS_FILTERED:0	CLUSTERS_MERGED:0	
METRICS:::	TS:772	NUM_POINTS:30	ALL_CLUSTERS:0	CLUSTERS_FILTERED:0	CLUSTERS_MERGED:0	
METRICS:::	TS:773	NUM_POINTS:30	ALL_CLUSTERS:0	CLUSTERS_FILTERED:0	CLUSTERS_MERGED:0	
METRICS:::	TS:774	NUM_POINTS:29	ALL_CLUSTERS:0	CLUSTERS_FILTERED:0	CLUSTERS_MERGED:0	
METRICS:::	TS:775	NUM_POINTS:28	ALL_CLUSTERS:0	CLUSTERS_FILTERED:0	CLUSTERS_MERGED:0	
METRICS:::	TS:776	NUM_POINTS:28	ALL_CLUSTERS:0	CLUSTERS_FILTERED:0	CLUSTERS_MERGED:0	
METRICS:::	TS:777	NUM_POINTS:28	ALL_CLUSTERS:0	CLUSTERS_FILTERED:0	CLUSTERS_MERGED:0	
METRICS:::	TS:778	NUM_POINTS:28	ALL_CLUSTERS:0	CLUSTERS_FILTERED:0	CLUSTERS_MERGED:0	
METRICS:::	TS:779	NUM_POINTS:28	ALL_CLUSTERS:0	CLUSTERS_FILTERED:0	CLUSTERS_MERGED:0	
METRICS:::	TS:780	NUM_POINTS:28	ALL_CLUSTERS:0	CLUSTERS_FILTERED:0	CLUSTERS_MERGED:0	
METRICS:::	TS:781	NUM_POINTS:27	ALL_CLUSTERS:0	CLUSTERS_FILTERED:0	CLUSTERS_MERGED:0	
METRICS:::	TS:782	NUM_POINTS:27	ALL_CLUSTERS:0	CLUSTERS_FILTERED:0	CLUSTERS_MERGED:0	
METRICS:::	TS:783	NUM_POINTS:27	ALL_CLUSTERS:0	CLUSTERS_FILTERED:0	CLUSTERS_MERGED:0	
METRICS:::	TS:784	NUM_POINTS:27	ALL_CLUSTERS:0	CLUSTERS_FILTERED:0	CLUSTERS_MERGED:0	
METRICS:::	TS:785	NUM_POINTS:27	ALL_CLUSTERS:0	CLUSTERS_FILTERED:0	CLUSTERS_MERGED:0	
METRICS:::	TS:786	NUM_POINTS:27	ALL_CLUSTERS:0	CLUSTERS_FILTERED:0	CLUSTERS_MERGED:0	
METRICS:::	TS:787	NUM_POINTS:27	ALL_CLUSTERS:0	CLUSTERS_FILTERED:0	CLUSTERS_MERGED:0	
METRICS:::	TS:788	NUM_POINTS:27	ALL_CLUSTERS:0	CLUSTERS_FILTERED:0	CLUSTERS_MERGED:0	
METRICS:::	TS:789	NUM_POINTS:27	ALL_CLUSTERS:0	CLUSTERS_FILTERED:0	CLUSTERS_MERGED:0	
METRICS:::	TS:790	NUM_POINTS:27	ALL_CLUSTERS:0	CLUSTERS_FILTERED:0	CLUSTERS_MERGED:0	
METRICS:::	TS:791	NUM_POINTS:27	ALL_CLUSTERS:0	CLUSTERS_FILTERED:0	CLUSTERS_MERGED:0	
METRICS:::	TS:792	NUM_POINTS:26	ALL_CLUSTERS:0	CLUSTERS_FILTERED:0	CLUSTERS_MERGED:0	
METRICS:::	TS:793	NUM_POINTS:26	ALL_CLUSTERS:0	CLUSTERS_FILTERED:0	CLUSTERS_MERGED:0	
METRICS:::	TS:794	NUM_POINTS:26	ALL_CLUSTERS:0	CLUSTERS_FILTERED:0	CLUSTERS_MERGED:0	
METRICS:::	TS:795	NUM_POINTS:26	ALL_CLUSTERS:0	CLUSTERS_FILTERED:0	CLUSTERS_MERGED:0	
METRICS:::	TS:796	NUM_POINTS:25	ALL_CLUSTERS:0	CLUSTERS_FILTERED:0	CLUSTERS_MERGED:0	
METRICS:::	TS:797	NUM_POINTS:25	ALL_CLUSTERS:0	CLUSTERS_FILTERED:0	CLUSTERS_MERGED:0	
METRICS:::	TS:798	NUM_POINTS:25	ALL_CLUSTERS:0	CLUSTERS_FILTERED:0	CLUSTERS_MERGED:0	
METRICS:::	TS:799	NUM_POINTS:25	ALL_CLUSTERS:0	CLUSTERS_FILTERED:0	CLUSTERS_MERGED:0	
METRICS:::	TS:800	NUM_POINTS:25	ALL_CLUSTERS:0	CLUSTERS_FILTERED:0	CLUSTERS_MERGED:0	
METRICS:::	TS:801	NUM_POINTS:25	ALL_CLUSTERS:0	CLUSTERS_FILTERED:0	CLUSTERS_MERGED:0	
METRICS:::	TS:802	NUM_POINTS:25	ALL_CLUSTERS:0	CLUSTERS_FILTERED:0	CLUSTERS_MERGED:0	
METRICS:::	TS:803	NUM_POINTS:25	ALL_CLUSTERS:0	CLUSTERS_FILTERED:0	CLUSTERS_MERGED:0	
METRICS:::	TS:804	NUM_POINTS:25	ALL_CLUSTERS:0	CLUSTERS_FILTERED:0	CLUSTERS_MERGED:0	
METRICS:::	TS:805	NUM_POINTS:25	ALL_CLUSTERS:0	CLUSTERS_FILTERED:0	CLUSTERS_MERGED:0	
METRICS:::	TS:806	NUM_POINTS:25	ALL_CLUSTERS:0	CLUSTERS_FILTERED:0	CLUSTERS_MERGED:0	
METRICS:::	TS:807	NUM_POINTS:25	ALL_CLUSTERS:0	CLUSTERS_FILTERED:0	CLUSTERS_MERGED:0	
METRICS:::	TS:808	NUM_POINTS:25	ALL_CLUSTERS:0	CLUSTERS_FILTERED:0	CLUSTERS_MERGED:0	
METRICS:::	TS:809	NUM_POINTS:25	ALL_CLUSTERS:0	CLUSTERS_FILTERED:0	CLUSTERS_MERGED:0	
METRICS:::	TS:810	NUM_POINTS:25	ALL_CLUSTERS:0	CLUSTERS_FILTERED:0	CLUSTERS_MERGED:0	
METRICS:::	TS:811	NUM_POINTS:25	ALL_CLUSTERS:0	CLUSTERS_FILTERED:0	CLUSTERS_MERGED:0	
METRICS:::	TS:812	NUM_POINTS:25	ALL_CLUSTERS:0	CLUSTERS_FILTERED:0	CLUSTERS_MERGED:0	
METRICS:::	TS:813	NUM_POINTS:25	ALL_CLUSTERS:0	CLUSTERS_FILTERED:0	CLUSTERS_MERGED:0	
METRICS:::	TS:814	NUM_POINTS:25	ALL_CLUSTERS:0	CLUSTERS_FILTERED:0	CLUSTERS_MERGED:0	
METRICS:::	TS:815	NUM_POINTS:25	ALL_CLUSTERS:0	CLUSTERS_FILTERED:0	CLUSTERS_MERGED:0	
METRICS:::	TS:816	NUM_POINTS:25	ALL_CLUSTERS:0	CLUSTERS_FILTERED:0	CLUSTERS_MERGED:0	
METRICS:::	TS:817	NUM_POINTS:25	ALL_CLUSTERS:0	CLUSTERS_FILTERED:0	CLUSTERS_MERGED:0	
METRICS:::	TS:818	NUM_POINTS:25	ALL_CLUSTERS:0	CLUSTERS_FILTERED:0	CLUSTERS_MERGED:0	
METRICS:::	TS:819	NUM_POINTS:25	ALL_CLUSTERS:0	CLUSTERS_FILTERED:0	CLUSTERS_MERGED:0	
METRICS:::	TS:820	NUM_POINTS:24	ALL_CLUSTERS:0	CLUSTERS_FILTERED:0	CLUSTERS_MERGED:0	
METRICS:::	TS:821	NUM_POINTS:23	ALL_CLUSTERS:0	CLUSTERS_FILTERED:0	CLUSTERS_MERGED:0	
METRICS:::	TS:822	NUM_POINTS:23	ALL_CLUSTERS:0	CLUSTERS_FILTERED:0	CLUSTERS_MERGED:0	
METRICS:::	TS:823	NUM_POINTS:23	ALL_CLUSTERS:0	CLUSTERS_FILTERED:0	CLUSTERS_MERGED:0	
METRICS:::	TS:824	NUM_POINTS:23	ALL_CLUSTERS:0	CLUSTERS_FILTERED:0	CLUSTERS_MERGED:0	
METRICS:::	TS:825	NUM_POINTS:23	ALL_CLUSTERS:0	CLUSTERS_FILTERED:0	CLUSTERS_MERGED:0	
METRICS:::	TS:826	NUM_POINTS:23	ALL_CLUSTERS:0	CLUSTERS_FILTERED:0	CLUSTERS_MERGED:0	
METRICS:::	TS:827	NUM_POINTS:23	ALL_CLUSTERS:0	CLUSTERS_FILTERED:0	CLUSTERS_MERGED:0	
METRICS:::	TS:828	NUM_POINTS:23	ALL_CLUSTERS:0	CLUSTERS_FILTERED:0	CLUSTERS_MERGED:0	
METRICS:::	TS:829	NUM_POINTS:23	ALL_CLUSTERS:0	CLUSTERS_FILTERED:0	CLUSTERS_MERGED:0	
METRICS:::	TS:830	NUM_POINTS:23	ALL_CLUSTERS:0	CLUSTERS_FILTERED:0	CLUSTERS_MERGED:0	
METRICS:::	TS:831	NUM_POINTS:23	ALL_CLUSTERS:0	CLUSTERS_FILTERED:0	CLUSTERS_MERGED:0	
METRICS:::	TS:832	NUM_POINTS:22	ALL_CLUSTERS:0	CLUSTERS_FILTERED:0	CLUSTERS_MERGED:0	
METRICS:::	TS:833	NUM_POINTS:22	ALL_CLUSTERS:0	CLUSTERS_FILTERED:0	CLUSTERS_MERGED:0	
METRICS:::	TS:834	NUM_POINTS:22	ALL_CLUSTERS:0	CLUSTERS_FILTERED:0	CLUSTERS_MERGED:0	
METRICS:::	TS:835	NUM_POINTS:22	ALL_CLUSTERS:0	CLUSTERS_FILTERED:0	CLUSTERS_MERGED:0	
METRICS:::	TS:836	NUM_POINTS:22	ALL_CLUSTERS:0	CLUSTERS_FILTERED:0	CLUSTERS_MERGED:0	
METRICS:::	TS:837	NUM_POINTS:22	ALL_CLUSTERS:0	CLUSTERS_FILTERED:0	CLUSTERS_MERGED:0	
METRICS:::	TS:838	NUM_POINTS:22	ALL_CLUSTERS:0	CLUSTERS_FILTERED:0	CLUSTERS_MERGED:0	
METRICS:::	TS:839	NUM_POINTS:22	ALL_CLUSTERS:0	CLUSTERS_FILTERED:0	CLUSTERS_MERGED:0	
METRICS:::	TS:840	NUM_POINTS:22	ALL_CLUSTERS:0	CLUSTERS_FILTERED:0	CLUSTERS_MERGED:0	
METRICS:::	TS:841	NUM_POINTS:21	ALL_CLUSTERS:0	CLUSTERS_FILTERED:0	CLUSTERS_MERGED:0	
METRICS:::	TS:842	NUM_POINTS:20	ALL_CLUSTERS:0	CLUSTERS_FILTERED:0	CLUSTERS_MERGED:0	
METRICS:::	TS:843	NUM_POINTS:20	ALL_CLUSTERS:0	CLUSTERS_FILTERED:0	CLUSTERS_MERGED:0	
METRICS:::	TS:844	NUM_POINTS:20	ALL_CLUSTERS:0	CLUSTERS_FILTERED:0	CLUSTERS_MERGED:0	
METRICS:::	TS:845	NUM_POINTS:20	ALL_CLUSTERS:0	CLUSTERS_FILTERED:0	CLUSTERS_MERGED:0	
METRICS:::	TS:846	NUM_POINTS:20	ALL_CLUSTERS:0	CLUSTERS_FILTERED:0	CLUSTERS_MERGED:0	
METRICS:::	TS:847	NUM_POINTS:20	ALL_CLUSTERS:0	CLUSTERS_FILTERED:0	CLUSTERS_MERGED:0	
METRICS:::	TS:848	NUM_POINTS:20	ALL_CLUSTERS:0	CLUSTERS_FILTERED:0	CLUSTERS_MERGED:0	
METRICS:::	TS:849	NUM_POINTS:20	ALL_CLUSTERS:0	CLUSTERS_FILTERED:0	CLUSTERS_MERGED:0	
METRICS:::	TS:850	NUM_POINTS:20	ALL_CLUSTERS:0	CLUSTERS_FILTERED:0	CLUSTERS_MERGED:0	
METRICS:::	TS:851	NUM_POINTS:20	ALL_CLUSTERS:0	CLUSTERS_FILTERED:0	CLUSTERS_MERGED:0	
METRICS:::	TS:852	NUM_POINTS:20	ALL_CLUSTERS:0	CLUSTERS_FILTERED:0	CLUSTERS_MERGED:0	
METRICS:::	TS:853	NUM_POINTS:20	ALL_CLUSTERS:0	CLUSTERS_FILTERED:0	CLUSTERS_MERGED:0	
METRICS:::	TS:854	NUM_POINTS:19	ALL_CLUSTERS:0	CLUSTERS_FILTERED:0	CLUSTERS_MERGED:0	
METRICS:::	TS:855	NUM_POINTS:19	ALL_CLUSTERS:0	CLUSTERS_FILTERED:0	CLUSTERS_MERGED:0	
METRICS:::	TS:856	NUM_POINTS:19	ALL_CLUSTERS:0	CLUSTERS_FILTERED:0	CLUSTERS_MERGED:0	
METRICS:::	TS:857	NUM_POINTS:19	ALL_CLUSTERS:0	CLUSTERS_FILTERED:0	CLUSTERS_MERGED:0	
METRICS:::	TS:858	NUM_POINTS:19	ALL_CLUSTERS:0	CLUSTERS_FILTERED:0	CLUSTERS_MERGED:0	
METRICS:::	TS:859	NUM_POINTS:19	ALL_CLUSTERS:0	CLUSTERS_FILTERED:0	CLUSTERS_MERGED:0	
METRICS:::	TS:860	NUM_POINTS:19	ALL_CLUSTERS:0	CLUSTERS_FILTERED:0	CLUSTERS_MERGED:0	
METRICS:::	TS:861	NUM_POINTS:19	ALL_CLUSTERS:0	CLUSTERS_FILTERED:0	CLUSTERS_MERGED:0	
METRICS:::	TS:862	NUM_POINTS:18	ALL_CLUSTERS:0	CLUSTERS_FILTERED:0	CLUSTERS_MERGED:0	
METRICS:::	TS:863	NUM_POINTS:18	ALL_CLUSTERS:0	CLUSTERS_FILTERED:0	CLUSTERS_MERGED:0	
METRICS:::	TS:864	NUM_POINTS:18	ALL_CLUSTERS:0	CLUSTERS_FILTERED:0	CLUSTERS_MERGED:0	
METRICS:::	TS:865	NUM_POINTS:17	ALL_CLUSTERS:0	CLUSTERS_FILTERED:0	CLUSTERS_MERGED:0	
METRICS:::	TS:866	NUM_POINTS:17	ALL_CLUSTERS:0	CLUSTERS_FILTERED:0	CLUSTERS_MERGED:0	
METRICS:::	TS:867	NUM_POINTS:17	ALL_CLUSTERS:0	CLUSTERS_FILTERED:0	CLUSTERS_MERGED:0	
METRICS:::	TS:868	NUM_POINTS:17	ALL_CLUSTERS:0	CLUSTERS_FILTERED:0	CLUSTERS_MERGED:0	
METRICS:::	TS:869	NUM_POINTS:17	ALL_CLUSTERS:0	CLUSTERS_FILTERED:0	CLUSTERS_MERGED:0	
METRICS:::	TS:870	NUM_POINTS:17	ALL_CLUSTERS:0	CLUSTERS_FILTERED:0	CLUSTERS_MERGED:0	
METRICS:::	TS:871	NUM_POINTS:17	ALL_CLUSTERS:0	CLUSTERS_FILTERED:0	CLUSTERS_MERGED:0	
METRICS:::	TS:872	NUM_POINTS:17	ALL_CLUSTERS:0	CLUSTERS_FILTERED:0	CLUSTERS_MERGED:0	
METRICS:::	TS:873	NUM_POINTS:17	ALL_CLUSTERS:0	CLUSTERS_FILTERED:0	CLUSTERS_MERGED:0	
METRICS:::	TS:874	NUM_POINTS:17	ALL_CLUSTERS:0	CLUSTERS_FILTERED:0	CLUSTERS_MERGED:0	
METRICS:::	TS:875	NUM_POINTS:17	ALL_CLUSTERS:0	CLUSTERS_FILTERED:0	CLUSTERS_MERGED:0	
METRICS:::	TS:876	NUM_POINTS:17	ALL_CLUSTERS:0	CLUSTERS_FILTERED:0	CLUSTERS_MERGED:0	
METRICS:::	TS:877	NUM_POINTS:17	ALL_CLUSTERS:0	CLUSTERS_FILTERED:0	CLUSTERS_MERGED:0	
METRICS:::	TS:878	NUM_POINTS:16	ALL_CLUSTERS:0	CLUSTERS_FILTERED:0	CLUSTERS_MERGED:0	
METRICS:::	TS:879	NUM_POINTS:16	ALL_CLUSTERS:0	CLUSTERS_FILTERED:0	CLUSTERS_MERGED:0	
METRICS:::	TS:880	NUM_POINTS:16	ALL_CLUSTERS:0	CLUSTERS_FILTERED:0	CLUSTERS_MERGED:0	
METRICS:::	TS:881	NUM_POINTS:16	ALL_CLUSTERS:0	CLUSTERS_FILTERED:0	CLUSTERS_MERGED:0	
METRICS:::	TS:882	NUM_POINTS:16	ALL_CLUSTERS:0	CLUSTERS_FILTERED:0	CLUSTERS_MERGED:0	
METRICS:::	TS:883	NUM_POINTS:16	ALL_CLUSTERS:0	CLUSTERS_FILTERED:0	CLUSTERS_MERGED:0	
METRICS:::	TS:884	NUM_POINTS:16	ALL_CLUSTERS:0	CLUSTERS_FILTERED:0	CLUSTERS_MERGED:0	
METRICS:::	TS:885	NUM_POINTS:16	ALL_CLUSTERS:0	CLUSTERS_FILTERED:0	CLUSTERS_MERGED:0	
METRICS:::	TS:886	NUM_POINTS:16	ALL_CLUSTERS:0	CLUSTERS_FILTERED:0	CLUSTERS_MERGED:0	
METRICS:::	TS:887	NUM_POINTS:16	ALL_CLUSTERS:0	CLUSTERS_FILTERED:0	CLUSTERS_MERGED:0	
METRICS:::	TS:888	NUM_POINTS:16	ALL_CLUSTERS:0	CLUSTERS_FILTERED:0	CLUSTERS_MERGED:0	
METRICS:::	TS:889	NUM_POINTS:16	ALL_CLUSTERS:0	CLUSTERS_FILTERED:0	CLUSTERS_MERGED:0	
METRICS:::	TS:890	NUM_POINTS:16	ALL_CLUSTERS:0	CLUSTERS_FILTERED:0	CLUSTERS_MERGED:0	
METRICS:::	TS:891	NUM_POINTS:16	ALL_CLUSTERS:0	CLUSTERS_FILTERED:0	CLUSTERS_MERGED:0	
METRICS:::	TS:892	NUM_POINTS:16	ALL_CLUSTERS:0	CLUSTERS_FILTERED:0	CLUSTERS_MERGED:0	
METRICS:::	TS:893	NUM_POINTS:16	ALL_CLUSTERS:0	CLUSTERS_FILTERED:0	CLUSTERS_MERGED:0	
METRICS:::	TS:894	NUM_POINTS:16	ALL_CLUSTERS:0	CLUSTERS_FILTERED:0	CLUSTERS_MERGED:0	
METRICS:::	TS:895	NUM_POINTS:16	ALL_CLUSTERS:0	CLUSTERS_FILTERED:0	CLUSTERS_MERGED:0	
METRICS:::	TS:896	NUM_POINTS:16	ALL_CLUSTERS:0	CLUSTERS_FILTERED:0	CLUSTERS_MERGED:0	
METRICS:::	TS:897	NUM_POINTS:16	ALL_CLUSTERS:0	CLUSTERS_FILTERED:0	CLUSTERS_MERGED:0	
METRICS:::	TS:898	NUM_POINTS:16	ALL_CLUSTERS:0	CLUSTERS_FILTERED:0	CLUSTERS_MERGED:0	
METRICS:::	TS:899	NUM_POINTS:15	ALL_CLUSTERS:0	CLUSTERS_FILTERED:0	CLUSTERS_MERGED:0	
METRICS:::	TS:900	NUM_POINTS:15	ALL_CLUSTERS:0	CLUSTERS_FILTERED:0	CLUSTERS_MERGED:0	
METRICS:::	TS:901	NUM_POINTS:15	ALL_CLUSTERS:0	CLUSTERS_FILTERED:0	CLUSTERS_MERGED:0	
METRICS:::	TS:902	NUM_POINTS:15	ALL_CLUSTERS:0	CLUSTERS_FILTERED:0	CLUSTERS_MERGED:0	
METRICS:::	TS:903	NUM_POINTS:15	ALL_CLUSTERS:0	CLUSTERS_FILTERED:0	CLUSTERS_MERGED:0	
METRICS:::	TS:904	NUM_POINTS:15	ALL_CLUSTERS:0	CLUSTERS_FILTERED:0	CLUSTERS_MERGED:0	
METRICS:::	TS:905	NUM_POINTS:15	ALL_CLUSTERS:0	CLUSTERS_FILTERED:0	CLUSTERS_MERGED:0	
METRICS:::	TS:906	NUM_POINTS:15	ALL_CLUSTERS:0	CLUSTERS_FILTERED:0	CLUSTERS_MERGED:0	
METRICS:::	TS:907	NUM_POINTS:14	ALL_CLUSTERS:0	CLUSTERS_FILTERED:0	CLUSTERS_MERGED:0	
METRICS:::	TS:908	NUM_POINTS:14	ALL_CLUSTERS:0	CLUSTERS_FILTERED:0	CLUSTERS_MERGED:0	
METRICS:::	TS:909	NUM_POINTS:14	ALL_CLUSTERS:0	CLUSTERS_FILTERED:0	CLUSTERS_MERGED:0	
METRICS:::	TS:910	NUM_POINTS:14	ALL_CLUSTERS:0	CLUSTERS_FILTERED:0	CLUSTERS_MERGED:0	
METRICS:::	TS:911	NUM_POINTS:14	ALL_CLUSTERS:0	CLUSTERS_FILTERED:0	CLUSTERS_MERGED:0	
METRICS:::	TS:912	NUM_POINTS:13	ALL_CLUSTERS:0	CLUSTERS_FILTERED:0	CLUSTERS_MERGED:0	
METRICS:::	TS:913	NUM_POINTS:13	ALL_CLUSTERS:0	CLUSTERS_FILTERED:0	CLUSTERS_MERGED:0	
METRICS:::	TS:914	NUM_POINTS:13	ALL_CLUSTERS:0	CLUSTERS_FILTERED:0	CLUSTERS_MERGED:0	
METRICS:::	TS:915	NUM_POINTS:13	ALL_CLUSTERS:0	CLUSTERS_FILTERED:0	CLUSTERS_MERGED:0	
METRICS:::	TS:916	NUM_POINTS:13	ALL_CLUSTERS:0	CLUSTERS_FILTERED:0	CLUSTERS_MERGED:0	
METRICS:::	TS:917	NUM_POINTS:13	ALL_CLUSTERS:0	CLUSTERS_FILTERED:0	CLUSTERS_MERGED:0	
METRICS:::	TS:918	NUM_POINTS:13	ALL_CLUSTERS:0	CLUSTERS_FILTERED:0	CLUSTERS_MERGED:0	
METRICS:::	TS:919	NUM_POINTS:13	ALL_CLUSTERS:0	CLUSTERS_FILTERED:0	CLUSTERS_MERGED:0	
METRICS:::	TS:920	NUM_POINTS:13	ALL_CLUSTERS:0	CLUSTERS_FILTERED:0	CLUSTERS_MERGED:0	
METRICS:::	TS:921	NUM_POINTS:13	ALL_CLUSTERS:0	CLUSTERS_FILTERED:0	CLUSTERS_MERGED:0	
METRICS:::	TS:922	NUM_POINTS:13	ALL_CLUSTERS:0	CLUSTERS_FILTERED:0	CLUSTERS_MERGED:0	
METRICS:::	TS:923	NUM_POINTS:13	ALL_CLUSTERS:0	CLUSTERS_FILTERED:0	CLUSTERS_MERGED:0	
METRICS:::	TS:924	NUM_POINTS:13	ALL_CLUSTERS:0	CLUSTERS_FILTERED:0	CLUSTERS_MERGED:0	
METRICS:::	TS:925	NUM_POINTS:13	ALL_CLUSTERS:0	CLUSTERS_FILTERED:0	CLUSTERS_MERGED:0	
METRICS:::	TS:926	NUM_POINTS:13	ALL_CLUSTERS:0	CLUSTERS_FILTERED:0	CLUSTERS_MERGED:0	
METRICS:::	TS:927	NUM_POINTS:13	ALL_CLUSTERS:0	CLUSTERS_FILTERED:0	CLUSTERS_MERGED:0	
METRICS:::	TS:928	NUM_POINTS:12	ALL_CLUSTERS:0	CLUSTERS_FILTERED:0	CLUSTERS_MERGED:0	
METRICS:::	TS:929	NUM_POINTS:11	ALL_CLUSTERS:0	CLUSTERS_FILTERED:0	CLUSTERS_MERGED:0	
METRICS:::	TS:930	NUM_POINTS:11	ALL_CLUSTERS:0	CLUSTERS_FILTERED:0	CLUSTERS_MERGED:0	
METRICS:::	TS:931	NUM_POINTS:11	ALL_CLUSTERS:0	CLUSTERS_FILTERED:0	CLUSTERS_MERGED:0	
METRICS:::	TS:932	NUM_POINTS:11	ALL_CLUSTERS:0	CLUSTERS_FILTERED:0	CLUSTERS_MERGED:0	
METRICS:::	TS:933	NUM_POINTS:10	ALL_CLUSTERS:0	CLUSTERS_FILTERED:0	CLUSTERS_MERGED:0	
METRICS:::	TS:934	NUM_POINTS:10	ALL_CLUSTERS:0	CLUSTERS_FILTERED:0	CLUSTERS_MERGED:0	
METRICS:::	TS:935	NUM_POINTS:10	ALL_CLUSTERS:0	CLUSTERS_FILTERED:0	CLUSTERS_MERGED:0	
METRICS:::	TS:936	NUM_POINTS:10	ALL_CLUSTERS:0	CLUSTERS_FILTERED:0	CLUSTERS_MERGED:0	
METRICS:::	TS:937	NUM_POINTS:10	ALL_CLUSTERS:0	CLUSTERS_FILTERED:0	CLUSTERS_MERGED:0	
METRICS:::	TS:938	NUM_POINTS:10	ALL_CLUSTERS:0	CLUSTERS_FILTERED:0	CLUSTERS_MERGED:0	
METRICS:::	TS:939	NUM_POINTS:10	ALL_CLUSTERS:0	CLUSTERS_FILTERED:0	CLUSTERS_MERGED:0	
METRICS:::	TS:940	NUM_POINTS:10	ALL_CLUSTERS:0	CLUSTERS_FILTERED:0	CLUSTERS_MERGED:0	
METRICS:::	TS:941	NUM_POINTS:10	ALL_CLUSTERS:0	CLUSTERS_FILTERED:0	CLUSTERS_MERGED:0	
METRICS:::	TS:942	NUM_POINTS:10	ALL_CLUSTERS:0	CLUSTERS_FILTERED:0	CLUSTERS_MERGED:0	
METRICS:::	TS:943	NUM_POINTS:10	ALL_CLUSTERS:0	CLUSTERS_FILTERED:0	CLUSTERS_MERGED:0	
METRICS:::	TS:944	NUM_POINTS:10	ALL_CLUSTERS:0	CLUSTERS_FILTERED:0	CLUSTERS_MERGED:0	
METRICS:::	TS:945	NUM_POINTS:10	ALL_CLUSTERS:0	CLUSTERS_FILTERED:0	CLUSTERS_MERGED:0	
METRICS:::	TS:946	NUM_POINTS:10	ALL_CLUSTERS:0	CLUSTERS_FILTERED:0	CLUSTERS_MERGED:0	
METRICS:::	TS:947	NUM_POINTS:10	ALL_CLUSTERS:0	CLUSTERS_FILTERED:0	CLUSTERS_MERGED:0	
METRICS:::	TS:948	NUM_POINTS:10	ALL_CLUSTERS:0	CLUSTERS_FILTERED:0	CLUSTERS_MERGED:0	
METRICS:::	TS:949	NUM_POINTS:10	ALL_CLUSTERS:0	CLUSTERS_FILTERED:0	CLUSTERS_MERGED:0	
METRICS:::	TS:950	NUM_POINTS:10	ALL_CLUSTERS:0	CLUSTERS_FILTERED:0	CLUSTERS_MERGED:0	
METRICS:::	TS:951	NUM_POINTS:10	ALL_CLUSTERS:0	CLUSTERS_FILTERED:0	CLUSTERS_MERGED:0	
METRICS:::	TS:952	NUM_POINTS:10	ALL_CLUSTERS:0	CLUSTERS_FILTERED:0	CLUSTERS_MERGED:0	
METRICS:::	TS:953	NUM_POINTS:10	ALL_CLUSTERS:0	CLUSTERS_FILTERED:0	CLUSTERS_MERGED:0	
METRICS:::	TS:954	NUM_POINTS:10	ALL_CLUSTERS:0	CLUSTERS_FILTERED:0	CLUSTERS_MERGED:0	
METRICS:::	TS:955	NUM_POINTS:10	ALL_CLUSTERS:0	CLUSTERS_FILTERED:0	CLUSTERS_MERGED:0	
METRICS:::	TS:956	NUM_POINTS:10	ALL_CLUSTERS:0	CLUSTERS_FILTERED:0	CLUSTERS_MERGED:0	
METRICS:::	TS:957	NUM_POINTS:10	ALL_CLUSTERS:0	CLUSTERS_FILTERED:0	CLUSTERS_MERGED:0	
METRICS:::	TS:958	NUM_POINTS:10	ALL_CLUSTERS:0	CLUSTERS_FILTERED:0	CLUSTERS_MERGED:0	
METRICS:::	TS:959	NUM_POINTS:10	ALL_CLUSTERS:0	CLUSTERS_FILTERED:0	CLUSTERS_MERGED:0	
METRICS:::	TS:960	NUM_POINTS:10	ALL_CLUSTERS:0	CLUSTERS_FILTERED:0	CLUSTERS_MERGED:0	
METRICS:::	TS:961	NUM_POINTS:10	ALL_CLUSTERS:0	CLUSTERS_FILTERED:0	CLUSTERS_MERGED:0	
METRICS:::	TS:962	NUM_POINTS:10	ALL_CLUSTERS:0	CLUSTERS_FILTERED:0	CLUSTERS_MERGED:0	
METRICS:::	TS:963	NUM_POINTS:10	ALL_CLUSTERS:0	CLUSTERS_FILTERED:0	CLUSTERS_MERGED:0	
METRICS:::	TS:964	NUM_POINTS:9	ALL_CLUSTERS:0	CLUSTERS_FILTERED:0	CLUSTERS_MERGED:0	
METRICS:::	TS:965	NUM_POINTS:9	ALL_CLUSTERS:0	CLUSTERS_FILTERED:0	CLUSTERS_MERGED:0	
METRICS:::	TS:966	NUM_POINTS:9	ALL_CLUSTERS:0	CLUSTERS_FILTERED:0	CLUSTERS_MERGED:0	
METRICS:::	TS:967	NUM_POINTS:9	ALL_CLUSTERS:0	CLUSTERS_FILTERED:0	CLUSTERS_MERGED:0	
METRICS:::	TS:968	NUM_POINTS:9	ALL_CLUSTERS:0	CLUSTERS_FILTERED:0	CLUSTERS_MERGED:0	
METRICS:::	TS:969	NUM_POINTS:8	ALL_CLUSTERS:0	CLUSTERS_FILTERED:0	CLUSTERS_MERGED:0	
METRICS:::	TS:970	NUM_POINTS:8	ALL_CLUSTERS:0	CLUSTERS_FILTERED:0	CLUSTERS_MERGED:0	
METRICS:::	TS:971	NUM_POINTS:8	ALL_CLUSTERS:0	CLUSTERS_FILTERED:0	CLUSTERS_MERGED:0	
METRICS:::	TS:972	NUM_POINTS:8	ALL_CLUSTERS:0	CLUSTERS_FILTERED:0	CLUSTERS_MERGED:0	
METRICS:::	TS:973	NUM_POINTS:8	ALL_CLUSTERS:0	CLUSTERS_FILTERED:0	CLUSTERS_MERGED:0	
METRICS:::	TS:974	NUM_POINTS:8	ALL_CLUSTERS:0	CLUSTERS_FILTERED:0	CLUSTERS_MERGED:0	
METRICS:::	TS:975	NUM_POINTS:8	ALL_CLUSTERS:0	CLUSTERS_FILTERED:0	CLUSTERS_MERGED:0	
METRICS:::	TS:976	NUM_POINTS:8	ALL_CLUSTERS:0	CLUSTERS_FILTERED:0	CLUSTERS_MERGED:0	
METRICS:::	TS:977	NUM_POINTS:8	ALL_CLUSTERS:0	CLUSTERS_FILTERED:0	CLUSTERS_MERGED:0	
METRICS:::	TS:978	NUM_POINTS:8	ALL_CLUSTERS:0	CLUSTERS_FILTERED:0	CLUSTERS_MERGED:0	
METRICS:::	TS:979	NUM_POINTS:8	ALL_CLUSTERS:0	CLUSTERS_FILTERED:0	CLUSTERS_MERGED:0	
METRICS:::	TS:980	NUM_POINTS:8	ALL_CLUSTERS:0	CLUSTERS_FILTERED:0	CLUSTERS_MERGED:0	
METRICS:::	TS:981	NUM_POINTS:8	ALL_CLUSTERS:0	CLUSTERS_FILTERED:0	CLUSTERS_MERGED:0	
METRICS:::	TS:982	NUM_POINTS:8	ALL_CLUSTERS:0	CLUSTERS_FILTERED:0	CLUSTERS_MERGED:0	
METRICS:::	TS:983	NUM_POINTS:8	ALL_CLUSTERS:0	CLUSTERS_FILTERED:0	CLUSTERS_MERGED:0	
METRICS:::	TS:984	NUM_POINTS:8	ALL_CLUSTERS:0	CLUSTERS_FILTERED:0	CLUSTERS_MERGED:0	
METRICS:::	TS:985	NUM_POINTS:8	ALL_CLUSTERS:0	CLUSTERS_FILTERED:0	CLUSTERS_MERGED:0	
METRICS:::	TS:986	NUM_POINTS:8	ALL_CLUSTERS:0	CLUSTERS_FILTERED:0	CLUSTERS_MERGED:0	
METRICS:::	TS:987	NUM_POINTS:8	ALL_CLUSTERS:0	CLUSTERS_FILTERED:0	CLUSTERS_MERGED:0	
METRICS:::	TS:988	NUM_POINTS:8	ALL_CLUSTERS:0	CLUSTERS_FILTERED:0	CLUSTERS_MERGED:0	
METRICS:::	TS:989	NUM_POINTS:8	ALL_CLUSTERS:0	CLUSTERS_FILTERED:0	CLUSTERS_MERGED:0	
METRICS:::	TS:990	NUM_POINTS:8	ALL_CLUSTERS:0	CLUSTERS_FILTERED:0	CLUSTERS_MERGED:0	
METRICS:::	TS:991	NUM_POINTS:8	ALL_CLUSTERS:0	CLUSTERS_FILTERED:0	CLUSTERS_MERGED:0	
METRICS:::	TS:992	NUM_POINTS:8	ALL_CLUSTERS:0	CLUSTERS_FILTERED:0	CLUSTERS_MERGED:0	
METRICS:::	TS:993	NUM_POINTS:8	ALL_CLUSTERS:0	CLUSTERS_FILTERED:0	CLUSTERS_MERGED:0	
METRICS:::	TS:994	NUM_POINTS:8	ALL_CLUSTERS:0	CLUSTERS_FILTERED:0	CLUSTERS_MERGED:0	
METRICS:::	TS:995	NUM_POINTS:8	ALL_CLUSTERS:0	CLUSTERS_FILTERED:0	CLUSTERS_MERGED:0	
METRICS:::	TS:996	NUM_POINTS:8	ALL_CLUSTERS:0	CLUSTERS_FILTERED:0	CLUSTERS_MERGED:0	
METRICS:::	TS:997	NUM_POINTS:7	ALL_CLUSTERS:0	CLUSTERS_FILTERED:0	CLUSTERS_MERGED:0	
METRICS:::	TS:998	NUM_POINTS:6	ALL_CLUSTERS:0	CLUSTERS_FILTERED:0	CLUSTERS_MERGED:0	
METRICS:::	TS:999	NUM_POINTS:6	ALL_CLUSTERS:0	CLUSTERS_FILTERED:0	CLUSTERS_MERGED:0	
METRICS:::	TS:1000	NUM_POINTS:6	ALL_CLUSTERS:0	CLUSTERS_FILTERED:0	CLUSTERS_MERGED:0	
METRICS:::	TS:1001	NUM_POINTS:5	ALL_CLUSTERS:0	CLUSTERS_FILTERED:0	CLUSTERS_MERGED:0	
METRICS:::	TS:1002	NUM_POINTS:3	ALL_CLUSTERS:0	CLUSTERS_FILTERED:0	CLUSTERS_MERGED:0	
METRICS:::	TS:1003	NUM_POINTS:3	ALL_CLUSTERS:0	CLUSTERS_FILTERED:0	CLUSTERS_MERGED:0	
METRICS:::	TS:1004	NUM_POINTS:3	ALL_CLUSTERS:0	CLUSTERS_FILTERED:0	CLUSTERS_MERGED:0	
METRICS:::	TS:1005	NUM_POINTS:3	ALL_CLUSTERS:0	CLUSTERS_FILTERED:0	CLUSTERS_MERGED:0	
METRICS:::	TS:1006	NUM_POINTS:3	ALL_CLUSTERS:0	CLUSTERS_FILTERED:0	CLUSTERS_MERGED:0	
METRICS:::	TS:1007	NUM_POINTS:3	ALL_CLUSTERS:0	CLUSTERS_FILTERED:0	CLUSTERS_MERGED:0	
METRICS:::	TS:1008	NUM_POINTS:3	ALL_CLUSTERS:0	CLUSTERS_FILTERED:0	CLUSTERS_MERGED:0	
METRICS:::	TS:1009	NUM_POINTS:3	ALL_CLUSTERS:0	CLUSTERS_FILTERED:0	CLUSTERS_MERGED:0	
METRICS:::	TS:1010	NUM_POINTS:3	ALL_CLUSTERS:0	CLUSTERS_FILTERED:0	CLUSTERS_MERGED:0	
METRICS:::	TS:1011	NUM_POINTS:3	ALL_CLUSTERS:0	CLUSTERS_FILTERED:0	CLUSTERS_MERGED:0	
METRICS:::	TS:1012	NUM_POINTS:2	ALL_CLUSTERS:0	CLUSTERS_FILTERED:0	CLUSTERS_MERGED:0	
METRICS:::	TS:1013	NUM_POINTS:2	ALL_CLUSTERS:0	CLUSTERS_FILTERED:0	CLUSTERS_MERGED:0	
METRICS:::	TS:1014	NUM_POINTS:2	ALL_CLUSTERS:0	CLUSTERS_FILTERED:0	CLUSTERS_MERGED:0	
METRICS:::	TS:1015	NUM_POINTS:2	ALL_CLUSTERS:0	CLUSTERS_FILTERED:0	CLUSTERS_MERGED:0	
METRICS:::	TS:1016	NUM_POINTS:1	ALL_CLUSTERS:0	CLUSTERS_FILTERED:0	CLUSTERS_MERGED:0	
METRICS:::	TS:1017	NUM_POINTS:1	ALL_CLUSTERS:0	CLUSTERS_FILTERED:0	CLUSTERS_MERGED:0	
METRICS:::	TS:1018	NUM_POINTS:1	ALL_CLUSTERS:0	CLUSTERS_FILTERED:0	CLUSTERS_MERGED:0	
METRICS:::	TS:1019	NUM_POINTS:1	ALL_CLUSTERS:0	CLUSTERS_FILTERED:0	CLUSTERS_MERGED:0	
METRICS:::	TS:1020	NUM_POINTS:1	ALL_CLUSTERS:0	CLUSTERS_FILTERED:0	CLUSTERS_MERGED:0	
METRICS:::	TS:1021	NUM_POINTS:1	ALL_CLUSTERS:0	CLUSTERS_FILTERED:0	CLUSTERS_MERGED:0	
METRICS:::	TS:1022	NUM_POINTS:1	ALL_CLUSTERS:0	CLUSTERS_FILTERED:0	CLUSTERS_MERGED:0	
METRICS:::	TS:1023	NUM_POINTS:1	ALL_CLUSTERS:0	CLUSTERS_FILTERED:0	CLUSTERS_MERGED:0	
METRICS:::	TS:1024	NUM_POINTS:1	ALL_CLUSTERS:0	CLUSTERS_FILTERED:0	CLUSTERS_MERGED:0	
METRICS:::	TS:1025	NUM_POINTS:1	ALL_CLUSTERS:0	CLUSTERS_FILTERED:0	CLUSTERS_MERGED:0	
METRICS:::	TS:1026	NUM_POINTS:1	ALL_CLUSTERS:0	CLUSTERS_FILTERED:0	CLUSTERS_MERGED:0	
METRICS:::	TS:1027	NUM_POINTS:1	ALL_CLUSTERS:0	CLUSTERS_FILTERED:0	CLUSTERS_MERGED:0	
METRICS:::	TS:1028	NUM_POINTS:1	ALL_CLUSTERS:0	CLUSTERS_FILTERED:0	CLUSTERS_MERGED:0	
METRICS:::	TS:1029	NUM_POINTS:1	ALL_CLUSTERS:0	CLUSTERS_FILTERED:0	CLUSTERS_MERGED:0	
METRICS:::	TS:1030	NUM_POINTS:1	ALL_CLUSTERS:0	CLUSTERS_FILTERED:0	CLUSTERS_MERGED:0	
METRICS:::	TS:1031	NUM_POINTS:1	ALL_CLUSTERS:0	CLUSTERS_FILTERED:0	CLUSTERS_MERGED:0	
METRICS:::	TS:1032	NUM_POINTS:1	ALL_CLUSTERS:0	CLUSTERS_FILTERED:0	CLUSTERS_MERGED:0	
METRICS:::	TS:1033	NUM_POINTS:1	ALL_CLUSTERS:0	CLUSTERS_FILTERED:0	CLUSTERS_MERGED:0	
METRICS:::	TS:1034	NUM_POINTS:1	ALL_CLUSTERS:0	CLUSTERS_FILTERED:0	CLUSTERS_MERGED:0	
METRICS:::	TS:1035	NUM_POINTS:1	ALL_CLUSTERS:0	CLUSTERS_FILTERED:0	CLUSTERS_MERGED:0	
METRICS:::	TS:1036	NUM_POINTS:1	ALL_CLUSTERS:0	CLUSTERS_FILTERED:0	CLUSTERS_MERGED:0	
METRICS:::	TS:1037	NUM_POINTS:1	ALL_CLUSTERS:0	CLUSTERS_FILTERED:0	CLUSTERS_MERGED:0	
METRICS:::	TS:1038	NUM_POINTS:1	ALL_CLUSTERS:0	CLUSTERS_FILTERED:0	CLUSTERS_MERGED:0	
METRICS:::	TS:1039	NUM_POINTS:1	ALL_CLUSTERS:0	CLUSTERS_FILTERED:0	CLUSTERS_MERGED:0	
METRICS:::	TS:1040	NUM_POINTS:1	ALL_CLUSTERS:0	CLUSTERS_FILTERED:0	CLUSTERS_MERGED:0	
METRICS:::	TS:1041	NUM_POINTS:1	ALL_CLUSTERS:0	CLUSTERS_FILTERED:0	CLUSTERS_MERGED:0	
METRICS:::	TS:1042	NUM_POINTS:1	ALL_CLUSTERS:0	CLUSTERS_FILTERED:0	CLUSTERS_MERGED:0	
METRICS:::	TS:1043	NUM_POINTS:1	ALL_CLUSTERS:0	CLUSTERS_FILTERED:0	CLUSTERS_MERGED:0	
METRICS:::	TS:1044	NUM_POINTS:1	ALL_CLUSTERS:0	CLUSTERS_FILTERED:0	CLUSTERS_MERGED:0	
METRICS:::	TS:1045	NUM_POINTS:1	ALL_CLUSTERS:0	CLUSTERS_FILTERED:0	CLUSTERS_MERGED:0	
METRICS:::	TS:1046	NUM_POINTS:1	ALL_CLUSTERS:0	CLUSTERS_FILTERED:0	CLUSTERS_MERGED:0	
METRICS:::	TS:1047	NUM_POINTS:1	ALL_CLUSTERS:0	CLUSTERS_FILTERED:0	CLUSTERS_MERGED:0	
METRICS:::	TS:1048	NUM_POINTS:1	ALL_CLUSTERS:0	CLUSTERS_FILTERED:0	CLUSTERS_MERGED:0	
METRICS:::	TS:1049	NUM_POINTS:1	ALL_CLUSTERS:0	CLUSTERS_FILTERED:0	CLUSTERS_MERGED:0	
METRICS:::	TS:1050	NUM_POINTS:1	ALL_CLUSTERS:0	CLUSTERS_FILTERED:0	CLUSTERS_MERGED:0	
METRICS:::	TS:1051	NUM_POINTS:1	ALL_CLUSTERS:0	CLUSTERS_FILTERED:0	CLUSTERS_MERGED:0	
METRICS:::	TS:1052	NUM_POINTS:1	ALL_CLUSTERS:0	CLUSTERS_FILTERED:0	CLUSTERS_MERGED:0	
METRICS:::	TS:1053	NUM_POINTS:1	ALL_CLUSTERS:0	CLUSTERS_FILTERED:0	CLUSTERS_MERGED:0	
METRICS:::	TS:1054	NUM_POINTS:1	ALL_CLUSTERS:0	CLUSTERS_FILTERED:0	CLUSTERS_MERGED:0	
METRICS:::	TS:1055	NUM_POINTS:1	ALL_CLUSTERS:0	CLUSTERS_FILTERED:0	CLUSTERS_MERGED:0	
METRICS:::	TS:1056	NUM_POINTS:1	ALL_CLUSTERS:0	CLUSTERS_FILTERED:0	CLUSTERS_MERGED:0	
METRICS:::	TS:1057	NUM_POINTS:1	ALL_CLUSTERS:0	CLUSTERS_FILTERED:0	CLUSTERS_MERGED:0	
METRICS:::	TS:1058	NUM_POINTS:1	ALL_CLUSTERS:0	CLUSTERS_FILTERED:0	CLUSTERS_MERGED:0	
METRICS:::	TS:1059	NUM_POINTS:1	ALL_CLUSTERS:0	CLUSTERS_FILTERED:0	CLUSTERS_MERGED:0	
METRICS:::	TS:1060	NUM_POINTS:1	ALL_CLUSTERS:0	CLUSTERS_FILTERED:0	CLUSTERS_MERGED:0	
METRICS:::	TS:1061	NUM_POINTS:1	ALL_CLUSTERS:0	CLUSTERS_FILTERED:0	CLUSTERS_MERGED:0	
METRICS:::	TS:1062	NUM_POINTS:1	ALL_CLUSTERS:0	CLUSTERS_FILTERED:0	CLUSTERS_MERGED:0	
METRICS:::	TS:1063	NUM_POINTS:1	ALL_CLUSTERS:0	CLUSTERS_FILTERED:0	CLUSTERS_MERGED:0	
METRICS:::	TS:1064	NUM_POINTS:1	ALL_CLUSTERS:0	CLUSTERS_FILTERED:0	CLUSTERS_MERGED:0	
METRICS:::	TS:1065	NUM_POINTS:1	ALL_CLUSTERS:0	CLUSTERS_FILTERED:0	CLUSTERS_MERGED:0	
METRICS:::	TS:1066	NUM_POINTS:1	ALL_CLUSTERS:0	CLUSTERS_FILTERED:0	CLUSTERS_MERGED:0	
METRICS:::	TS:1067	NUM_POINTS:1	ALL_CLUSTERS:0	CLUSTERS_FILTERED:0	CLUSTERS_MERGED:0	
METRICS:::	TS:1068	NUM_POINTS:1	ALL_CLUSTERS:0	CLUSTERS_FILTERED:0	CLUSTERS_MERGED:0	
METRICS:::	TS:1069	NUM_POINTS:1	ALL_CLUSTERS:0	CLUSTERS_FILTERED:0	CLUSTERS_MERGED:0	
METRICS:::	TS:1070	NUM_POINTS:1	ALL_CLUSTERS:0	CLUSTERS_FILTERED:0	CLUSTERS_MERGED:0	
METRICS:::	TS:1071	NUM_POINTS:1	ALL_CLUSTERS:0	CLUSTERS_FILTERED:0	CLUSTERS_MERGED:0	
METRICS:::	TS:1072	NUM_POINTS:1	ALL_CLUSTERS:0	CLUSTERS_FILTERED:0	CLUSTERS_MERGED:0	
METRICS:::	TS:1073	NUM_POINTS:1	ALL_CLUSTERS:0	CLUSTERS_FILTERED:0	CLUSTERS_MERGED:0	
METRICS:::	TS:1074	NUM_POINTS:1	ALL_CLUSTERS:0	CLUSTERS_FILTERED:0	CLUSTERS_MERGED:0	
METRICS:::	TS:1075	NUM_POINTS:1	ALL_CLUSTERS:0	CLUSTERS_FILTERED:0	CLUSTERS_MERGED:0	
METRICS:::	TS:1076	NUM_POINTS:1	ALL_CLUSTERS:0	CLUSTERS_FILTERED:0	CLUSTERS_MERGED:0	
METRICS:::	TS:1077	NUM_POINTS:1	ALL_CLUSTERS:0	CLUSTERS_FILTERED:0	CLUSTERS_MERGED:0	
METRICS:::	TS:1078	NUM_POINTS:1	ALL_CLUSTERS:0	CLUSTERS_FILTERED:0	CLUSTERS_MERGED:0	
METRICS:::	TS:1079	NUM_POINTS:1	ALL_CLUSTERS:0	CLUSTERS_FILTERED:0	CLUSTERS_MERGED:0	
METRICS:::	TS:1080	NUM_POINTS:1	ALL_CLUSTERS:0	CLUSTERS_FILTERED:0	CLUSTERS_MERGED:0	
METRICS:::	TS:1081	NUM_POINTS:1	ALL_CLUSTERS:0	CLUSTERS_FILTERED:0	CLUSTERS_MERGED:0	
METRICS:::	TS:1082	NUM_POINTS:1	ALL_CLUSTERS:0	CLUSTERS_FILTERED:0	CLUSTERS_MERGED:0	
METRICS:::	TS:1083	NUM_POINTS:1	ALL_CLUSTERS:0	CLUSTERS_FILTERED:0	CLUSTERS_MERGED:0	
METRICS:::	TS:1084	NUM_POINTS:1	ALL_CLUSTERS:0	CLUSTERS_FILTERED:0	CLUSTERS_MERGED:0	
METRICS:::	TS:1085	NUM_POINTS:1	ALL_CLUSTERS:0	CLUSTERS_FILTERED:0	CLUSTERS_MERGED:0	
METRICS:::	TS:1086	NUM_POINTS:1	ALL_CLUSTERS:0	CLUSTERS_FILTERED:0	CLUSTERS_MERGED:0	
METRICS:::	TS:1087	NUM_POINTS:1	ALL_CLUSTERS:0	CLUSTERS_FILTERED:0	CLUSTERS_MERGED:0	
METRICS:::	TS:1088	NUM_POINTS:1	ALL_CLUSTERS:0	CLUSTERS_FILTERED:0	CLUSTERS_MERGED:0	
METRICS:::	TS:1089	NUM_POINTS:1	ALL_CLUSTERS:0	CLUSTERS_FILTERED:0	CLUSTERS_MERGED:0	
METRICS:::	TS:1090	NUM_POINTS:1	ALL_CLUSTERS:0	CLUSTERS_FILTERED:0	CLUSTERS_MERGED:0	
METRICS:::	TS:1091	NUM_POINTS:1	ALL_CLUSTERS:0	CLUSTERS_FILTERED:0	CLUSTERS_MERGED:0	
METRICS:::	TS:1092	NUM_POINTS:1	ALL_CLUSTERS:0	CLUSTERS_FILTERED:0	CLUSTERS_MERGED:0	
METRICS:::	TS:1093	NUM_POINTS:1	ALL_CLUSTERS:0	CLUSTERS_FILTERED:0	CLUSTERS_MERGED:0	
METRICS:::	TS:1094	NUM_POINTS:1	ALL_CLUSTERS:0	CLUSTERS_FILTERED:0	CLUSTERS_MERGED:0	
METRICS:::	TS:1095	NUM_POINTS:1	ALL_CLUSTERS:0	CLUSTERS_FILTERED:0	CLUSTERS_MERGED:0	
METRICS:::	TS:1096	NUM_POINTS:1	ALL_CLUSTERS:0	CLUSTERS_FILTERED:0	CLUSTERS_MERGED:0	
METRICS:::	TS:1097	NUM_POINTS:1	ALL_CLUSTERS:0	CLUSTERS_FILTERED:0	CLUSTERS_MERGED:0	
METRICS:::	TS:1098	NUM_POINTS:1	ALL_CLUSTERS:0	CLUSTERS_FILTERED:0	CLUSTERS_MERGED:0	
METRICS:::	TS:1099	NUM_POINTS:1	ALL_CLUSTERS:0	CLUSTERS_FILTERED:0	CLUSTERS_MERGED:0	
METRICS:::	TS:1100	NUM_POINTS:1	ALL_CLUSTERS:0	CLUSTERS_FILTERED:0	CLUSTERS_MERGED:0	
METRICS:::	TS:1101	NUM_POINTS:1	ALL_CLUSTERS:0	CLUSTERS_FILTERED:0	CLUSTERS_MERGED:0	
METRICS:::	TS:1102	NUM_POINTS:1	ALL_CLUSTERS:0	CLUSTERS_FILTERED:0	CLUSTERS_MERGED:0	
METRICS:::	TS:1103	NUM_POINTS:1	ALL_CLUSTERS:0	CLUSTERS_FILTERED:0	CLUSTERS_MERGED:0	
METRICS:::	TS:1104	NUM_POINTS:1	ALL_CLUSTERS:0	CLUSTERS_FILTERED:0	CLUSTERS_MERGED:0	
METRICS:::	TS:1105	NUM_POINTS:1	ALL_CLUSTERS:0	CLUSTERS_FILTERED:0	CLUSTERS_MERGED:0	
METRICS:::	TS:1106	NUM_POINTS:1	ALL_CLUSTERS:0	CLUSTERS_FILTERED:0	CLUSTERS_MERGED:0	
METRICS:::	TS:1107	NUM_POINTS:1	ALL_CLUSTERS:0	CLUSTERS_FILTERED:0	CLUSTERS_MERGED:0	
METRICS:::	TS:1108	NUM_POINTS:1	ALL_CLUSTERS:0	CLUSTERS_FILTERED:0	CLUSTERS_MERGED:0	
METRICS:::	TS:1109	NUM_POINTS:1	ALL_CLUSTERS:0	CLUSTERS_FILTERED:0	CLUSTERS_MERGED:0	
METRICS:::	TS:1110	NUM_POINTS:1	ALL_CLUSTERS:0	CLUSTERS_FILTERED:0	CLUSTERS_MERGED:0	
METRICS:::	TS:1111	NUM_POINTS:1	ALL_CLUSTERS:0	CLUSTERS_FILTERED:0	CLUSTERS_MERGED:0	
METRICS:::	TS:1112	NUM_POINTS:1	ALL_CLUSTERS:0	CLUSTERS_FILTERED:0	CLUSTERS_MERGED:0	
METRICS:::	TS:1113	NUM_POINTS:1	ALL_CLUSTERS:0	CLUSTERS_FILTERED:0	CLUSTERS_MERGED:0	
METRICS:::	TS:1114	NUM_POINTS:1	ALL_CLUSTERS:0	CLUSTERS_FILTERED:0	CLUSTERS_MERGED:0	
METRICS:::	TS:1115	NUM_POINTS:1	ALL_CLUSTERS:0	CLUSTERS_FILTERED:0	CLUSTERS_MERGED:0	
METRICS:::	TS:1116	NUM_POINTS:1	ALL_CLUSTERS:0	CLUSTERS_FILTERED:0	CLUSTERS_MERGED:0	
METRICS:::	TS:1117	NUM_POINTS:1	ALL_CLUSTERS:0	CLUSTERS_FILTERED:0	CLUSTERS_MERGED:0	
METRICS:::	TS:1118	NUM_POINTS:1	ALL_CLUSTERS:0	CLUSTERS_FILTERED:0	CLUSTERS_MERGED:0	
METRICS:::	TS:1119	NUM_POINTS:1	ALL_CLUSTERS:0	CLUSTERS_FILTERED:0	CLUSTERS_MERGED:0	
METRICS:::	TS:1120	NUM_POINTS:1	ALL_CLUSTERS:0	CLUSTERS_FILTERED:0	CLUSTERS_MERGED:0	
METRICS:::	TS:1121	NUM_POINTS:1	ALL_CLUSTERS:0	CLUSTERS_FILTERED:0	CLUSTERS_MERGED:0	
METRICS:::	TS:1122	NUM_POINTS:1	ALL_CLUSTERS:0	CLUSTERS_FILTERED:0	CLUSTERS_MERGED:0	
METRICS:::	TS:1123	NUM_POINTS:1	ALL_CLUSTERS:0	CLUSTERS_FILTERED:0	CLUSTERS_MERGED:0	
METRICS:::	TS:1124	NUM_POINTS:1	ALL_CLUSTERS:0	CLUSTERS_FILTERED:0	CLUSTERS_MERGED:0	
METRICS:::	TS:1125	NUM_POINTS:1	ALL_CLUSTERS:0	CLUSTERS_FILTERED:0	CLUSTERS_MERGED:0	
METRICS:::	TS:1126	NUM_POINTS:1	ALL_CLUSTERS:0	CLUSTERS_FILTERED:0	CLUSTERS_MERGED:0	
METRICS:::	TS:1127	NUM_POINTS:1	ALL_CLUSTERS:0	CLUSTERS_FILTERED:0	CLUSTERS_MERGED:0	